﻿Log file open, 11/27/22 13:27:29
LogWindows: Failed to load 'aqProf.dll' (GetLastError=126)
LogWindows: File 'aqProf.dll' does not exist
LogWindows: Failed to load 'VtuneApi.dll' (GetLastError=126)
LogWindows: File 'VtuneApi.dll' does not exist
LogWindows: Failed to load 'VtuneApi32e.dll' (GetLastError=126)
LogWindows: File 'VtuneApi32e.dll' does not exist
LogConsoleResponse: Display: Failed to find resolution value strings in scalability ini. Falling back to default.
LogConsoleResponse: Display: Failed to find resolution value strings in scalability ini. Falling back to default.
LogInit: Display: Running engine for game: HW932
LogPlatformFile: Not using cached read wrapper
LogTaskGraph: Started task graph with 5 named threads and 23 total threads with 3 sets of task threads.
LogStats: Stats thread started at 0.193996
LogICUInternationalization: ICU TimeZone Detection - Raw Offset: +3:00, Platform Override: ''
LogInit: Display: Loading text-based GConfig....
LogPluginManager: Mounting plugin MeshPainting
LogPluginManager: Mounting plugin XGEController
LogPluginManager: Mounting plugin Paper2D
LogPluginManager: Mounting plugin LiveLink
LogPluginManager: Mounting plugin AISupport
LogPluginManager: Mounting plugin EnvironmentQueryEditor
LogPluginManager: Mounting plugin CameraShakePreviewer
LogPluginManager: Mounting plugin GameplayCameras
LogPluginManager: Mounting plugin LightPropagationVolume
LogPluginManager: Mounting plugin OodleData
LogPluginManager: Mounting plugin OodleNetwork
LogPluginManager: Mounting plugin AssetManagerEditor
LogPluginManager: Mounting plugin CryptoKeys
LogPluginManager: Mounting plugin CurveEditorTools
LogPluginManager: Mounting plugin DataValidation
LogPluginManager: Mounting plugin FacialAnimation
LogPluginManager: Mounting plugin GameplayTagsEditor
LogPluginManager: Mounting plugin GeometryMode
LogPluginManager: Mounting plugin MacGraphicsSwitching
LogPluginManager: Mounting plugin MaterialAnalyzer
LogPluginManager: Mounting plugin MobileLauncherProfileWizard
LogPluginManager: Mounting plugin PluginBrowser
LogPluginManager: Mounting plugin AnimationSharing
LogPluginManager: Mounting plugin SpeedTreeImporter
LogPluginManager: Mounting plugin CLionSourceCodeAccess
LogPluginManager: Mounting plugin CodeLiteSourceCodeAccess
LogPluginManager: Mounting plugin GitSourceControl
LogPluginManager: Mounting plugin KDevelopSourceCodeAccess
LogPluginManager: Mounting plugin NullSourceCodeAccess
LogPluginManager: Mounting plugin PerforceSourceControl
LogPluginManager: Mounting plugin PixWinPlugin
LogPluginManager: Mounting plugin PlasticSourceControl
LogPluginManager: Mounting plugin PluginUtils
LogPluginManager: Mounting plugin PropertyAccessNode
LogPluginManager: Mounting plugin RiderSourceCodeAccess
LogPluginManager: Mounting plugin TextureFormatOodle
LogPluginManager: Mounting plugin SubversionSourceControl
LogPluginManager: Mounting plugin UObjectPlugin
LogPluginManager: Mounting plugin VisualStudioCodeSourceCodeAccess
LogPluginManager: Mounting plugin VisualStudioSourceCodeAccess
LogPluginManager: Mounting plugin XCodeSourceCodeAccess
LogPluginManager: Mounting plugin DatasmithContent
LogPluginManager: Mounting plugin VariantManagerContent
LogPluginManager: Mounting plugin AlembicImporter
LogPluginManager: Mounting plugin AutomationUtils
LogPluginManager: Mounting plugin BackChannel
LogPluginManager: Mounting plugin ChaosCloth
LogPluginManager: Mounting plugin ChaosClothEditor
LogPluginManager: Mounting plugin ChaosEditor
LogPluginManager: Mounting plugin ChaosSolverPlugin
LogPluginManager: Mounting plugin ChaosNiagara
LogPluginManager: Mounting plugin CharacterAI
LogPluginManager: Mounting plugin Niagara
LogPluginManager: Mounting plugin GeometryCache
LogPluginManager: Mounting plugin GeometryCollectionPlugin
LogPluginManager: Mounting plugin GeometryProcessing
LogPluginManager: Mounting plugin MotoSynth
LogPluginManager: Mounting plugin OpenImageDenoise
LogPluginManager: Mounting plugin PlanarCut
LogPluginManager: Mounting plugin PlatformCrypto
LogPluginManager: Mounting plugin PythonScriptPlugin
LogPluginManager: Mounting plugin ProxyLODPlugin
LogPluginManager: Mounting plugin SkeletalReduction
LogPluginManager: Mounting plugin LuminPlatformFeatures
LogPluginManager: Mounting plugin MagicLeap
LogPluginManager: Mounting plugin MagicLeapLightEstimation
LogPluginManager: Mounting plugin MagicLeapMedia
LogPluginManager: Mounting plugin MagicLeapPassableWorld
LogPluginManager: Mounting plugin MLSDK
LogPluginManager: Mounting plugin AndroidMedia
LogPluginManager: Mounting plugin AvfMedia
LogPluginManager: Mounting plugin MediaCompositing
LogPluginManager: Mounting plugin ImgMedia
LogPluginManager: Mounting plugin MediaPlayerEditor
LogPluginManager: Mounting plugin WebMMedia
LogPluginManager: Mounting plugin WmfMedia
LogPluginManager: Mounting plugin TcpMessaging
LogPluginManager: Mounting plugin ActorSequence
LogPluginManager: Mounting plugin UdpMessaging
LogPluginManager: Mounting plugin LevelSequenceEditor
LogPluginManager: Mounting plugin MatineeToLevelSequence
LogPluginManager: Mounting plugin TemplateSequence
LogPluginManager: Mounting plugin OnlineSubsystem
LogPluginManager: Mounting plugin OnlineSubsystemNull
LogPluginManager: Mounting plugin OnlineSubsystemUtils
LogPluginManager: Mounting plugin LauncherChunkInstaller
LogPluginManager: Mounting plugin ActorLayerUtilities
LogPluginManager: Mounting plugin AndroidDeviceProfileSelector
LogPluginManager: Mounting plugin AndroidMoviePlayer
LogPluginManager: Mounting plugin AndroidPermission
LogPluginManager: Mounting plugin AppleImageUtils
LogPluginManager: Mounting plugin AppleMoviePlayer
LogPluginManager: Mounting plugin ArchVisCharacter
LogPluginManager: Mounting plugin AssetTags
LogPluginManager: Mounting plugin AudioCapture
LogPluginManager: Mounting plugin AudioSynesthesia
LogPluginManager: Mounting plugin CableComponent
LogPluginManager: Mounting plugin ChunkDownloader
LogPluginManager: Mounting plugin CustomMeshComponent
LogPluginManager: Mounting plugin EditableMesh
LogPluginManager: Mounting plugin ExampleDeviceProfileSelector
LogPluginManager: Mounting plugin GoogleCloudMessaging
LogPluginManager: Mounting plugin GooglePAD
LogPluginManager: Mounting plugin IOSDeviceProfileSelector
LogPluginManager: Mounting plugin LinuxDeviceProfileSelector
LogPluginManager: Mounting plugin LocationServicesBPLibrary
LogPluginManager: Mounting plugin MobilePatchingUtils
LogPluginManager: Mounting plugin OpenXR
LogPluginManager: Mounting plugin OpenXREyeTracker
LogPluginManager: Mounting plugin OpenXRHandTracking
LogPluginManager: Mounting plugin PhysXVehicles
LogPluginManager: Mounting plugin PostSplashScreen
LogPluginManager: Mounting plugin ProceduralMeshComponent
LogPluginManager: Mounting plugin PropertyAccessEditor
LogPluginManager: Mounting plugin RuntimePhysXCooking
LogPluginManager: Mounting plugin SignificanceManager
LogPluginManager: Mounting plugin SoundFields
LogPluginManager: Mounting plugin Synthesis
LogPluginManager: Mounting plugin WebMMoviePlayer
LogPluginManager: Mounting plugin WindowsMoviePlayer
LogPluginManager: Mounting plugin Takes
LogPluginManager: Mounting plugin ScreenshotTools
LogPluginManager: Mounting plugin ContentBrowserAssetDataSource
LogPluginManager: Mounting plugin ContentBrowserClassDataSource
LogPluginManager: Mounting plugin ContentBrowserFileDataSource
LogPluginManager: Mounting plugin OnlineSubsystemGooglePlay
LogPluginManager: Mounting plugin OnlineSubsystemIOS
LogPluginManager: Mounting plugin OculusVR
LogPluginManager: Mounting plugin SteamVR
PixWinPlugin: PIX capture plugin failed to initialize! Check that the process is launched from PIX.
LogInit: Using libcurl 7.55.1-DEV
LogInit:  - built for x86_64-pc-win32
LogInit:  - supports SSL with OpenSSL/1.1.1
LogInit:  - supports HTTP deflate (compression) using libz 1.2.8
LogInit:  - other features:
LogInit:      CURL_VERSION_SSL
LogInit:      CURL_VERSION_LIBZ
LogInit:      CURL_VERSION_IPV6
LogInit:      CURL_VERSION_ASYNCHDNS
LogInit:      CURL_VERSION_LARGEFILE
LogInit:      CURL_VERSION_IDN
LogInit:  CurlRequestOptions (configurable via config and command line):
LogInit:  - bVerifyPeer = true  - Libcurl will verify peer certificate
LogInit:  - bUseHttpProxy = false  - Libcurl will NOT use HTTP proxy
LogInit:  - bDontReuseConnections = false  - Libcurl will reuse connections
LogInit:  - MaxHostConnections = 16  - Libcurl will limit the number of connections to a host
LogInit:  - LocalHostAddr = Default
LogInit:  - BufferSize = 65536
LogOnline: OSS: Creating online subsystem instance for: NULL
LogInit: WinSock: version 1.1 (2.2), MaxSocks=32767, MaxUdp=65467
LogOnline: OSS: TryLoadSubsystemAndSetDefault: Loaded subsystem for module [NULL]
LogOculusPluginWrapper: OculusPlugin initialized successfully
LogHMD: Failed initializing OVRPlugin 1.59.0
LogInit: Build: ++UE4+Release-4.27-CL-18319896
LogInit: Engine Version: 4.27.2-18319896+++UE4+Release-4.27
LogInit: Compatible Engine Version: 4.27.0-17155196+++UE4+Release-4.27
LogInit: Net CL: 17155196
LogInit: OS: Windows 10 (Release 1909) (), CPU: Intel(R) Core(TM) i5-9300H CPU @ 2.40GHz, GPU: Intel(R) UHD Graphics 630
LogInit: Compiled (64-bit): Nov 30 2021 07:12:08
LogInit: Compiled with Visual C++: 19.24.28315.00
LogInit: Build Configuration: Development
LogInit: Branch Name: ++UE4+Release-4.27
LogInit: Command Line: 
LogInit: Base Directory: D:/Epic/UE_4.27/Engine/Binaries/Win64/
LogInit: Allocator: TBB
LogInit: Installed Engine Build: 1
LogDevObjectVersion: Number of dev versions registered: 29
LogDevObjectVersion:   Dev-Blueprints (B0D832E4-1F89-4F0D-ACCF-7EB736FD4AA2): 10
LogDevObjectVersion:   Dev-Build (E1C64328-A22C-4D53-A36C-8E866417BD8C): 0
LogDevObjectVersion:   Dev-Core (375EC13C-06E4-48FB-B500-84F0262A717E): 4
LogDevObjectVersion:   Dev-Editor (E4B068ED-F494-42E9-A231-DA0B2E46BB41): 40
LogDevObjectVersion:   Dev-Framework (CFFC743F-43B0-4480-9391-14DF171D2073): 37
LogDevObjectVersion:   Dev-Mobile (B02B49B5-BB20-44E9-A304-32B752E40360): 3
LogDevObjectVersion:   Dev-Networking (A4E4105C-59A1-49B5-A7C5-40C4547EDFEE): 0
LogDevObjectVersion:   Dev-Online (39C831C9-5AE6-47DC-9A44-9C173E1C8E7C): 0
LogDevObjectVersion:   Dev-Physics (78F01B33-EBEA-4F98-B9B4-84EACCB95AA2): 14
LogDevObjectVersion:   Dev-Platform (6631380F-2D4D-43E0-8009-CF276956A95A): 0
LogDevObjectVersion:   Dev-Rendering (12F88B9F-8875-4AFC-A67C-D90C383ABD29): 45
LogDevObjectVersion:   Dev-Sequencer (7B5AE74C-D270-4C10-A958-57980B212A5A): 13
LogDevObjectVersion:   Dev-VR (D7296918-1DD6-4BDD-9DE2-64A83CC13884): 3
LogDevObjectVersion:   Dev-LoadTimes (C2A15278-BFE7-4AFE-6C17-90FF531DF755): 1
LogDevObjectVersion:   Private-Geometry (6EACA3D4-40EC-4CC1-B786-8BED09428FC5): 3
LogDevObjectVersion:   Dev-AnimPhys (29E575DD-E0A3-4627-9D10-D276232CDCEA): 17
LogDevObjectVersion:   Dev-Anim (AF43A65D-7FD3-4947-9873-3E8ED9C1BB05): 15
LogDevObjectVersion:   Dev-ReflectionCapture (6B266CEC-1EC7-4B8F-A30B-E4D90942FC07): 1
LogDevObjectVersion:   Dev-Automation (0DF73D61-A23F-47EA-B727-89E90C41499A): 1
LogDevObjectVersion:   FortniteMain (601D1886-AC64-4F84-AA16-D3DE0DEAC7D6): 47
LogDevObjectVersion:   FortniteRelease (E7086368-6B23-4C58-8439-1B7016265E91): 1
LogDevObjectVersion:   Dev-Enterprise (9DFFBCD6-494F-0158-E221-12823C92A888): 10
LogDevObjectVersion:   Dev-Niagara (F2AED0AC-9AFE-416F-8664-AA7FFA26D6FC): 1
LogDevObjectVersion:   Dev-Destruction (174F1F0B-B4C6-45A5-B13F-2EE8D0FB917D): 10
LogDevObjectVersion:   Dev-Physics-Ext (35F94A83-E258-406C-A318-09F59610247C): 41
LogDevObjectVersion:   Dev-PhysicsMaterial-Chaos (B68FC16E-8B1B-42E2-B453-215C058844FE): 1
LogDevObjectVersion:   Dev-CineCamera (B2E18506-4273-CFC2-A54E-F4BB758BBA07): 1
LogDevObjectVersion:   Dev-VirtualProduction (64F58936-FD1B-42BA-BA96-7289D5D0FA4E): 1
LogDevObjectVersion:   Dev-MediaFramework (6F0ED827-A609-4895-9C91-998D90180EA4): 2
LogInit: Presizing for max 25165824 objects, including 0 objects not considered by GC, pre-allocating 0 bytes for permanent pool.
LogConfig: Applying CVar settings from Section [/Script/Engine.StreamingSettings] File [D:/Документы/Unreal Projects/HomeWork 9.3.2/Saved/Config/Windows/Engine.ini]
LogConfig: Setting CVar [[s.MinBulkDataSizeForAsyncLoading:131072]]
LogConfig: Setting CVar [[s.AsyncLoadingThreadEnabled:0]]
LogConfig: Setting CVar [[s.EventDrivenLoaderEnabled:1]]
LogConfig: Setting CVar [[s.WarnIfTimeLimitExceeded:0]]
LogConfig: Setting CVar [[s.TimeLimitExceededMultiplier:1.5]]
LogConfig: Setting CVar [[s.TimeLimitExceededMinTime:0.005]]
LogConfig: Setting CVar [[s.UseBackgroundLevelStreaming:1]]
LogConfig: Setting CVar [[s.PriorityAsyncLoadingExtraTime:15.0]]
LogConfig: Setting CVar [[s.LevelStreamingActorsUpdateTimeLimit:5.0]]
LogConfig: Setting CVar [[s.PriorityLevelStreamingActorsUpdateExtraTime:5.0]]
LogConfig: Setting CVar [[s.LevelStreamingComponentsRegistrationGranularity:10]]
LogConfig: Setting CVar [[s.UnregisterComponentsTimeLimit:1.0]]
LogConfig: Setting CVar [[s.LevelStreamingComponentsUnregistrationGranularity:5]]
LogConfig: Setting CVar [[s.FlushStreamingOnExit:1]]
LogInit: Object subsystem initialized
LogConfig: Setting CVar [[con.DebugEarlyDefault:1]]
LogConfig: Setting CVar [[r.setres:1280x720]]
[2022.11.27-10.27.29:967][  0]LogConfig: Setting CVar [[r.VSync:0]]
[2022.11.27-10.27.29:967][  0]LogConfig: Setting CVar [[r.RHICmdBypass:0]]
[2022.11.27-10.27.29:967][  0]LogConfig: Applying CVar settings from Section [/Script/Engine.RendererSettings] File [D:/Документы/Unreal Projects/HomeWork 9.3.2/Saved/Config/Windows/Engine.ini]
[2022.11.27-10.27.29:967][  0]LogConfig: Setting CVar [[r.GPUCrashDebugging:0]]
[2022.11.27-10.27.29:967][  0]LogConfig: Applying CVar settings from Section [/Script/Engine.RendererOverrideSettings] File [D:/Документы/Unreal Projects/HomeWork 9.3.2/Saved/Config/Windows/Engine.ini]
[2022.11.27-10.27.29:967][  0]LogConfig: Applying CVar settings from Section [/Script/Engine.StreamingSettings] File [D:/Документы/Unreal Projects/HomeWork 9.3.2/Saved/Config/Windows/Engine.ini]
[2022.11.27-10.27.29:967][  0]LogConfig: Setting CVar [[s.MinBulkDataSizeForAsyncLoading:131072]]
[2022.11.27-10.27.29:967][  0]LogConfig: Setting CVar [[s.AsyncLoadingThreadEnabled:0]]
[2022.11.27-10.27.29:967][  0]LogConfig: Setting CVar [[s.EventDrivenLoaderEnabled:1]]
[2022.11.27-10.27.29:967][  0]LogConfig: Setting CVar [[s.WarnIfTimeLimitExceeded:0]]
[2022.11.27-10.27.29:967][  0]LogConfig: Setting CVar [[s.TimeLimitExceededMultiplier:1.5]]
[2022.11.27-10.27.29:967][  0]LogConfig: Setting CVar [[s.TimeLimitExceededMinTime:0.005]]
[2022.11.27-10.27.29:967][  0]LogConfig: Setting CVar [[s.UseBackgroundLevelStreaming:1]]
[2022.11.27-10.27.29:967][  0]LogConfig: Setting CVar [[s.PriorityAsyncLoadingExtraTime:15.0]]
[2022.11.27-10.27.29:967][  0]LogConfig: Setting CVar [[s.LevelStreamingActorsUpdateTimeLimit:5.0]]
[2022.11.27-10.27.29:967][  0]LogConfig: Setting CVar [[s.PriorityLevelStreamingActorsUpdateExtraTime:5.0]]
[2022.11.27-10.27.29:967][  0]LogConfig: Setting CVar [[s.LevelStreamingComponentsRegistrationGranularity:10]]
[2022.11.27-10.27.29:967][  0]LogConfig: Setting CVar [[s.UnregisterComponentsTimeLimit:1.0]]
[2022.11.27-10.27.29:967][  0]LogConfig: Setting CVar [[s.LevelStreamingComponentsUnregistrationGranularity:5]]
[2022.11.27-10.27.29:967][  0]LogConfig: Setting CVar [[s.FlushStreamingOnExit:1]]
[2022.11.27-10.27.29:967][  0]LogConfig: Applying CVar settings from Section [/Script/Engine.GarbageCollectionSettings] File [D:/Документы/Unreal Projects/HomeWork 9.3.2/Saved/Config/Windows/Engine.ini]
[2022.11.27-10.27.29:967][  0]LogConfig: Setting CVar [[gc.MaxObjectsNotConsideredByGC:1]]
[2022.11.27-10.27.29:967][  0]LogConfig: Setting CVar [[gc.SizeOfPermanentObjectPool:0]]
[2022.11.27-10.27.29:967][  0]LogConfig: Setting CVar [[gc.FlushStreamingOnGC:0]]
[2022.11.27-10.27.29:968][  0]LogConfig: Setting CVar [[gc.NumRetriesBeforeForcingGC:10]]
[2022.11.27-10.27.29:968][  0]LogConfig: Setting CVar [[gc.AllowParallelGC:1]]
[2022.11.27-10.27.29:968][  0]LogConfig: Setting CVar [[gc.TimeBetweenPurgingPendingKillObjects:61.1]]
[2022.11.27-10.27.29:968][  0]LogConfig: Setting CVar [[gc.MaxObjectsInEditor:25165824]]
[2022.11.27-10.27.29:968][  0]LogConfig: Setting CVar [[gc.IncrementalBeginDestroyEnabled:1]]
[2022.11.27-10.27.29:968][  0]LogConfig: Setting CVar [[gc.CreateGCClusters:1]]
[2022.11.27-10.27.29:968][  0]LogConfig: Setting CVar [[gc.MinGCClusterSize:5]]
[2022.11.27-10.27.29:968][  0]LogConfig: Setting CVar [[gc.ActorClusteringEnabled:0]]
[2022.11.27-10.27.29:968][  0]LogConfig: Setting CVar [[gc.BlueprintClusteringEnabled:0]]
[2022.11.27-10.27.29:968][  0]LogConfig: Setting CVar [[gc.UseDisregardForGCOnDedicatedServers:0]]
[2022.11.27-10.27.29:968][  0]LogConfig: Setting CVar [[gc.MultithreadedDestructionEnabled:1]]
[2022.11.27-10.27.29:968][  0]LogConfig: Applying CVar settings from Section [/Script/Engine.NetworkSettings] File [D:/Документы/Unreal Projects/HomeWork 9.3.2/Saved/Config/Windows/Engine.ini]
[2022.11.27-10.27.29:968][  0]LogConfig: Applying CVar settings from Section [/Script/UnrealEd.CookerSettings] File [D:/Документы/Unreal Projects/HomeWork 9.3.2/Saved/Config/Windows/Engine.ini]
[2022.11.27-10.27.29:976][  0]LogConfig: Applying CVar settings from Section [ViewDistanceQuality@3] File [D:/Документы/Unreal Projects/HomeWork 9.3.2/Saved/Config/Windows/Scalability.ini]
[2022.11.27-10.27.29:977][  0]LogConfig: Setting CVar [[r.SkeletalMeshLODBias:0]]
[2022.11.27-10.27.29:977][  0]LogConfig: Setting CVar [[r.ViewDistanceScale:1.0]]
[2022.11.27-10.27.29:977][  0]LogConfig: Applying CVar settings from Section [AntiAliasingQuality@3] File [D:/Документы/Unreal Projects/HomeWork 9.3.2/Saved/Config/Windows/Scalability.ini]
[2022.11.27-10.27.29:977][  0]LogConfig: Setting CVar [[r.PostProcessAAQuality:4]]
[2022.11.27-10.27.29:977][  0]LogConfig: Applying CVar settings from Section [ShadowQuality@3] File [D:/Документы/Unreal Projects/HomeWork 9.3.2/Saved/Config/Windows/Scalability.ini]
[2022.11.27-10.27.29:977][  0]LogConfig: Setting CVar [[r.LightFunctionQuality:1]]
[2022.11.27-10.27.29:977][  0]LogConfig: Setting CVar [[r.ShadowQuality:5]]
[2022.11.27-10.27.29:977][  0]LogConfig: Setting CVar [[r.Shadow.CSM.MaxCascades:10]]
[2022.11.27-10.27.29:977][  0]LogConfig: Setting CVar [[r.Shadow.MaxResolution:2048]]
[2022.11.27-10.27.29:977][  0]LogConfig: Setting CVar [[r.Shadow.MaxCSMResolution:2048]]
[2022.11.27-10.27.29:977][  0]LogConfig: Setting CVar [[r.Shadow.RadiusThreshold:0.01]]
[2022.11.27-10.27.29:977][  0]LogConfig: Setting CVar [[r.Shadow.DistanceScale:1.0]]
[2022.11.27-10.27.29:977][  0]LogConfig: Setting CVar [[r.Shadow.CSM.TransitionScale:1.0]]
[2022.11.27-10.27.29:977][  0]LogConfig: Setting CVar [[r.Shadow.PreShadowResolutionFactor:1.0]]
[2022.11.27-10.27.29:977][  0]LogConfig: Setting CVar [[r.DistanceFieldShadowing:1]]
[2022.11.27-10.27.29:977][  0]LogConfig: Setting CVar [[r.DistanceFieldAO:1]]
[2022.11.27-10.27.29:977][  0]LogConfig: Setting CVar [[r.AOQuality:2]]
[2022.11.27-10.27.29:977][  0]LogConfig: Setting CVar [[r.VolumetricFog:1]]
[2022.11.27-10.27.29:977][  0]LogConfig: Setting CVar [[r.VolumetricFog.GridPixelSize:8]]
[2022.11.27-10.27.29:977][  0]LogConfig: Setting CVar [[r.VolumetricFog.GridSizeZ:128]]
[2022.11.27-10.27.29:977][  0]LogConfig: Setting CVar [[r.VolumetricFog.HistoryMissSupersampleCount:4]]
[2022.11.27-10.27.29:977][  0]LogConfig: Setting CVar [[r.LightMaxDrawDistanceScale:1]]
[2022.11.27-10.27.29:977][  0]LogConfig: Setting CVar [[r.CapsuleShadows:1]]
[2022.11.27-10.27.29:977][  0]LogConfig: Applying CVar settings from Section [PostProcessQuality@3] File [D:/Документы/Unreal Projects/HomeWork 9.3.2/Saved/Config/Windows/Scalability.ini]
[2022.11.27-10.27.29:977][  0]LogConfig: Setting CVar [[r.MotionBlurQuality:4]]
[2022.11.27-10.27.29:977][  0]LogConfig: Setting CVar [[r.AmbientOcclusionMipLevelFactor:0.4]]
[2022.11.27-10.27.29:977][  0]LogConfig: Setting CVar [[r.AmbientOcclusionMaxQuality:100]]
[2022.11.27-10.27.29:977][  0]LogConfig: Setting CVar [[r.AmbientOcclusionLevels:-1]]
[2022.11.27-10.27.29:977][  0]LogConfig: Setting CVar [[r.AmbientOcclusionRadiusScale:1.0]]
[2022.11.27-10.27.29:977][  0]LogConfig: Setting CVar [[r.DepthOfFieldQuality:2]]
[2022.11.27-10.27.29:977][  0]LogConfig: Setting CVar [[r.RenderTargetPoolMin:400]]
[2022.11.27-10.27.29:977][  0]LogConfig: Setting CVar [[r.LensFlareQuality:2]]
[2022.11.27-10.27.29:977][  0]LogConfig: Setting CVar [[r.SceneColorFringeQuality:1]]
[2022.11.27-10.27.29:977][  0]LogConfig: Setting CVar [[r.EyeAdaptationQuality:2]]
[2022.11.27-10.27.29:977][  0]LogConfig: Setting CVar [[r.BloomQuality:5]]
[2022.11.27-10.27.29:977][  0]LogConfig: Setting CVar [[r.FastBlurThreshold:100]]
[2022.11.27-10.27.29:977][  0]LogConfig: Setting CVar [[r.Upscale.Quality:3]]
[2022.11.27-10.27.29:977][  0]LogConfig: Setting CVar [[r.Tonemapper.GrainQuantization:1]]
[2022.11.27-10.27.29:977][  0]LogConfig: Setting CVar [[r.LightShaftQuality:1]]
[2022.11.27-10.27.29:977][  0]LogConfig: Setting CVar [[r.Filter.SizeScale:1]]
[2022.11.27-10.27.29:977][  0]LogConfig: Setting CVar [[r.Tonemapper.Quality:5]]
[2022.11.27-10.27.29:977][  0]LogConfig: Setting CVar [[r.DOF.Gather.AccumulatorQuality:1        ; higher gathering accumulator quality]]
[2022.11.27-10.27.29:977][  0]LogConfig: Setting CVar [[r.DOF.Gather.PostfilterMethod:1          ; Median3x3 postfilering method]]
[2022.11.27-10.27.29:977][  0]LogConfig: Setting CVar [[r.DOF.Gather.EnableBokehSettings:0       ; no bokeh simulation when gathering]]
[2022.11.27-10.27.29:977][  0]LogConfig: Setting CVar [[r.DOF.Gather.RingCount:4                 ; medium number of samples when gathering]]
[2022.11.27-10.27.29:977][  0]LogConfig: Setting CVar [[r.DOF.Scatter.ForegroundCompositing:1    ; additive foreground scattering]]
[2022.11.27-10.27.29:977][  0]LogConfig: Setting CVar [[r.DOF.Scatter.BackgroundCompositing:2    ; additive background scattering]]
[2022.11.27-10.27.29:977][  0]LogConfig: Setting CVar [[r.DOF.Scatter.EnableBokehSettings:1      ; bokeh simulation when scattering]]
[2022.11.27-10.27.29:977][  0]LogConfig: Setting CVar [[r.DOF.Scatter.MaxSpriteRatio:0.1         ; only a maximum of 10% of scattered bokeh]]
[2022.11.27-10.27.29:977][  0]LogConfig: Setting CVar [[r.DOF.Recombine.Quality:1                ; cheap slight out of focus]]
[2022.11.27-10.27.29:977][  0]LogConfig: Setting CVar [[r.DOF.Recombine.EnableBokehSettings:0    ; no bokeh simulation on slight out of focus]]
[2022.11.27-10.27.29:977][  0]LogConfig: Setting CVar [[r.DOF.TemporalAAQuality:1                ; more stable temporal accumulation]]
[2022.11.27-10.27.29:977][  0]LogConfig: Setting CVar [[r.DOF.Kernel.MaxForegroundRadius:0.025]]
[2022.11.27-10.27.29:977][  0]LogConfig: Setting CVar [[r.DOF.Kernel.MaxBackgroundRadius:0.025]]
[2022.11.27-10.27.29:977][  0]LogConfig: Applying CVar settings from Section [TextureQuality@3] File [D:/Документы/Unreal Projects/HomeWork 9.3.2/Saved/Config/Windows/Scalability.ini]
[2022.11.27-10.27.29:977][  0]LogConfig: Setting CVar [[r.Streaming.MipBias:0]]
[2022.11.27-10.27.29:977][  0]LogConfig: Setting CVar [[r.Streaming.AmortizeCPUToGPUCopy:0]]
[2022.11.27-10.27.29:977][  0]LogConfig: Setting CVar [[r.Streaming.MaxNumTexturesToStreamPerFrame:0]]
[2022.11.27-10.27.29:977][  0]LogConfig: Setting CVar [[r.Streaming.Boost:1]]
[2022.11.27-10.27.29:977][  0]LogConfig: Setting CVar [[r.MaxAnisotropy:8]]
[2022.11.27-10.27.29:977][  0]LogConfig: Setting CVar [[r.VT.MaxAnisotropy:8]]
[2022.11.27-10.27.29:977][  0]LogConfig: Setting CVar [[r.Streaming.LimitPoolSizeToVRAM:0]]
[2022.11.27-10.27.29:977][  0]LogConfig: Setting CVar [[r.Streaming.PoolSize:1000]]
[2022.11.27-10.27.29:977][  0]LogConfig: Setting CVar [[r.Streaming.MaxEffectiveScreenSize:0]]
[2022.11.27-10.27.29:977][  0]LogConfig: Applying CVar settings from Section [EffectsQuality@3] File [D:/Документы/Unreal Projects/HomeWork 9.3.2/Saved/Config/Windows/Scalability.ini]
[2022.11.27-10.27.29:977][  0]LogConfig: Setting CVar [[r.TranslucencyLightingVolumeDim:64]]
[2022.11.27-10.27.29:977][  0]LogConfig: Setting CVar [[r.RefractionQuality:2]]
[2022.11.27-10.27.29:977][  0]LogConfig: Setting CVar [[r.SSR.Quality:3]]
[2022.11.27-10.27.29:977][  0]LogConfig: Setting CVar [[r.SSR.HalfResSceneColor:0]]
[2022.11.27-10.27.29:977][  0]LogConfig: Setting CVar [[r.SceneColorFormat:4]]
[2022.11.27-10.27.29:977][  0]LogConfig: Setting CVar [[r.DetailMode:2]]
[2022.11.27-10.27.29:977][  0]LogConfig: Setting CVar [[r.TranslucencyVolumeBlur:1]]
[2022.11.27-10.27.29:977][  0]LogConfig: Setting CVar [[r.MaterialQualityLevel:1 ; High quality]]
[2022.11.27-10.27.29:977][  0]LogConfig: Setting CVar [[r.AnisotropicMaterials:1]]
[2022.11.27-10.27.29:977][  0]LogConfig: Setting CVar [[r.SSS.Scale:1]]
[2022.11.27-10.27.29:977][  0]LogConfig: Setting CVar [[r.SSS.SampleSet:2]]
[2022.11.27-10.27.29:977][  0]LogConfig: Setting CVar [[r.SSS.Quality:1]]
[2022.11.27-10.27.29:977][  0]LogConfig: Setting CVar [[r.SSS.HalfRes:0]]
[2022.11.27-10.27.29:977][  0]LogConfig: Setting CVar [[r.SSGI.Quality:3]]
[2022.11.27-10.27.29:977][  0]LogConfig: Setting CVar [[r.EmitterSpawnRateScale:1.0]]
[2022.11.27-10.27.29:977][  0]LogConfig: Setting CVar [[r.ParticleLightQuality:2]]
[2022.11.27-10.27.29:977][  0]LogConfig: Setting CVar [[r.SkyAtmosphere.AerialPerspectiveLUT.FastApplyOnOpaque:1 ; Always have FastSkyLUT 1 in this case to avoid wrong sky]]
[2022.11.27-10.27.29:977][  0]LogConfig: Setting CVar [[r.SkyAtmosphere.AerialPerspectiveLUT.SampleCountMaxPerSlice:4]]
[2022.11.27-10.27.29:977][  0]LogConfig: Setting CVar [[r.SkyAtmosphere.AerialPerspectiveLUT.DepthResolution:16.0]]
[2022.11.27-10.27.29:977][  0]LogConfig: Setting CVar [[r.SkyAtmosphere.FastSkyLUT:1]]
[2022.11.27-10.27.29:977][  0]LogConfig: Setting CVar [[r.SkyAtmosphere.FastSkyLUT.SampleCountMin:4.0]]
[2022.11.27-10.27.29:977][  0]LogConfig: Setting CVar [[r.SkyAtmosphere.FastSkyLUT.SampleCountMax:128.0]]
[2022.11.27-10.27.29:977][  0]LogConfig: Setting CVar [[r.SkyAtmosphere.SampleCountMin:4.0]]
[2022.11.27-10.27.29:977][  0]LogConfig: Setting CVar [[r.SkyAtmosphere.SampleCountMax:128.0]]
[2022.11.27-10.27.29:977][  0]LogConfig: Setting CVar [[r.SkyAtmosphere.TransmittanceLUT.UseSmallFormat:0]]
[2022.11.27-10.27.29:977][  0]LogConfig: Setting CVar [[r.SkyAtmosphere.TransmittanceLUT.SampleCount:10.0]]
[2022.11.27-10.27.29:977][  0]LogConfig: Setting CVar [[r.SkyAtmosphere.MultiScatteringLUT.SampleCount:15.0]]
[2022.11.27-10.27.29:977][  0]LogConfig: Setting CVar [[r.SkyLight.RealTimeReflectionCapture:1]]
[2022.11.27-10.27.29:978][  0]LogConfig: Applying CVar settings from Section [FoliageQuality@3] File [D:/Документы/Unreal Projects/HomeWork 9.3.2/Saved/Config/Windows/Scalability.ini]
[2022.11.27-10.27.29:978][  0]LogConfig: Setting CVar [[foliage.DensityScale:1.0]]
[2022.11.27-10.27.29:978][  0]LogConfig: Setting CVar [[grass.DensityScale:1.0]]
[2022.11.27-10.27.29:978][  0]LogConfig: Applying CVar settings from Section [ShadingQuality@3] File [D:/Документы/Unreal Projects/HomeWork 9.3.2/Saved/Config/Windows/Scalability.ini]
[2022.11.27-10.27.29:978][  0]LogConfig: Setting CVar [[r.HairStrands.SkyLighting.IntegrationType:2]]
[2022.11.27-10.27.29:978][  0]LogConfig: Setting CVar [[r.HairStrands.SkyAO.SampleCount:4]]
[2022.11.27-10.27.29:978][  0]LogConfig: Setting CVar [[r.HairStrands.Visibility.MSAA.SamplePerPixel:4]]
[2022.11.27-10.27.29:978][  0]LogInit: Selected Device Profile: [Windows]
[2022.11.27-10.27.29:978][  0]LogInit: Applying CVar settings loaded from the selected device profile: [Windows]
[2022.11.27-10.27.29:978][  0]LogHAL: Display: Platform has ~ 32 GB [34194698240 / 34359738368 / 32], which maps to Largest [LargestMinGB=32, LargerMinGB=12, DefaultMinGB=8, SmallerMinGB=6, SmallestMinGB=0)
[2022.11.27-10.27.29:978][  0]LogInit: Going up to parent DeviceProfile []
[2022.11.27-10.27.29:978][  0]LogConfig: Applying CVar settings from Section [ViewDistanceQuality@3] File [D:/Документы/Unreal Projects/HomeWork 9.3.2/Saved/Config/Windows/Scalability.ini]
[2022.11.27-10.27.29:978][  0]LogConfig: Setting CVar [[r.SkeletalMeshLODBias:0]]
[2022.11.27-10.27.29:978][  0]LogConfig: Setting CVar [[r.ViewDistanceScale:1.0]]
[2022.11.27-10.27.29:978][  0]LogConfig: Applying CVar settings from Section [AntiAliasingQuality@3] File [D:/Документы/Unreal Projects/HomeWork 9.3.2/Saved/Config/Windows/Scalability.ini]
[2022.11.27-10.27.29:978][  0]LogConfig: Setting CVar [[r.PostProcessAAQuality:4]]
[2022.11.27-10.27.29:978][  0]LogConfig: Applying CVar settings from Section [ShadowQuality@3] File [D:/Документы/Unreal Projects/HomeWork 9.3.2/Saved/Config/Windows/Scalability.ini]
[2022.11.27-10.27.29:978][  0]LogConfig: Setting CVar [[r.LightFunctionQuality:1]]
[2022.11.27-10.27.29:978][  0]LogConfig: Setting CVar [[r.ShadowQuality:5]]
[2022.11.27-10.27.29:978][  0]LogConfig: Setting CVar [[r.Shadow.CSM.MaxCascades:10]]
[2022.11.27-10.27.29:978][  0]LogConfig: Setting CVar [[r.Shadow.MaxResolution:2048]]
[2022.11.27-10.27.29:978][  0]LogConfig: Setting CVar [[r.Shadow.MaxCSMResolution:2048]]
[2022.11.27-10.27.29:978][  0]LogConfig: Setting CVar [[r.Shadow.RadiusThreshold:0.01]]
[2022.11.27-10.27.29:978][  0]LogConfig: Setting CVar [[r.Shadow.DistanceScale:1.0]]
[2022.11.27-10.27.29:978][  0]LogConfig: Setting CVar [[r.Shadow.CSM.TransitionScale:1.0]]
[2022.11.27-10.27.29:978][  0]LogConfig: Setting CVar [[r.Shadow.PreShadowResolutionFactor:1.0]]
[2022.11.27-10.27.29:978][  0]LogConfig: Setting CVar [[r.DistanceFieldShadowing:1]]
[2022.11.27-10.27.29:978][  0]LogConfig: Setting CVar [[r.DistanceFieldAO:1]]
[2022.11.27-10.27.29:978][  0]LogConfig: Setting CVar [[r.AOQuality:2]]
[2022.11.27-10.27.29:978][  0]LogConfig: Setting CVar [[r.VolumetricFog:1]]
[2022.11.27-10.27.29:978][  0]LogConfig: Setting CVar [[r.VolumetricFog.GridPixelSize:8]]
[2022.11.27-10.27.29:978][  0]LogConfig: Setting CVar [[r.VolumetricFog.GridSizeZ:128]]
[2022.11.27-10.27.29:978][  0]LogConfig: Setting CVar [[r.VolumetricFog.HistoryMissSupersampleCount:4]]
[2022.11.27-10.27.29:978][  0]LogConfig: Setting CVar [[r.LightMaxDrawDistanceScale:1]]
[2022.11.27-10.27.29:978][  0]LogConfig: Setting CVar [[r.CapsuleShadows:1]]
[2022.11.27-10.27.29:978][  0]LogConfig: Applying CVar settings from Section [PostProcessQuality@3] File [D:/Документы/Unreal Projects/HomeWork 9.3.2/Saved/Config/Windows/Scalability.ini]
[2022.11.27-10.27.29:978][  0]LogConfig: Setting CVar [[r.MotionBlurQuality:4]]
[2022.11.27-10.27.29:978][  0]LogConfig: Setting CVar [[r.AmbientOcclusionMipLevelFactor:0.4]]
[2022.11.27-10.27.29:978][  0]LogConfig: Setting CVar [[r.AmbientOcclusionMaxQuality:100]]
[2022.11.27-10.27.29:978][  0]LogConfig: Setting CVar [[r.AmbientOcclusionLevels:-1]]
[2022.11.27-10.27.29:978][  0]LogConfig: Setting CVar [[r.AmbientOcclusionRadiusScale:1.0]]
[2022.11.27-10.27.29:978][  0]LogConfig: Setting CVar [[r.DepthOfFieldQuality:2]]
[2022.11.27-10.27.29:978][  0]LogConfig: Setting CVar [[r.RenderTargetPoolMin:400]]
[2022.11.27-10.27.29:978][  0]LogConfig: Setting CVar [[r.LensFlareQuality:2]]
[2022.11.27-10.27.29:978][  0]LogConfig: Setting CVar [[r.SceneColorFringeQuality:1]]
[2022.11.27-10.27.29:978][  0]LogConfig: Setting CVar [[r.EyeAdaptationQuality:2]]
[2022.11.27-10.27.29:978][  0]LogConfig: Setting CVar [[r.BloomQuality:5]]
[2022.11.27-10.27.29:978][  0]LogConfig: Setting CVar [[r.FastBlurThreshold:100]]
[2022.11.27-10.27.29:978][  0]LogConfig: Setting CVar [[r.Upscale.Quality:3]]
[2022.11.27-10.27.29:978][  0]LogConfig: Setting CVar [[r.Tonemapper.GrainQuantization:1]]
[2022.11.27-10.27.29:978][  0]LogConfig: Setting CVar [[r.LightShaftQuality:1]]
[2022.11.27-10.27.29:978][  0]LogConfig: Setting CVar [[r.Filter.SizeScale:1]]
[2022.11.27-10.27.29:978][  0]LogConfig: Setting CVar [[r.Tonemapper.Quality:5]]
[2022.11.27-10.27.29:978][  0]LogConfig: Setting CVar [[r.DOF.Gather.AccumulatorQuality:1        ; higher gathering accumulator quality]]
[2022.11.27-10.27.29:978][  0]LogConfig: Setting CVar [[r.DOF.Gather.PostfilterMethod:1          ; Median3x3 postfilering method]]
[2022.11.27-10.27.29:978][  0]LogConfig: Setting CVar [[r.DOF.Gather.EnableBokehSettings:0       ; no bokeh simulation when gathering]]
[2022.11.27-10.27.29:978][  0]LogConfig: Setting CVar [[r.DOF.Gather.RingCount:4                 ; medium number of samples when gathering]]
[2022.11.27-10.27.29:978][  0]LogConfig: Setting CVar [[r.DOF.Scatter.ForegroundCompositing:1    ; additive foreground scattering]]
[2022.11.27-10.27.29:978][  0]LogConfig: Setting CVar [[r.DOF.Scatter.BackgroundCompositing:2    ; additive background scattering]]
[2022.11.27-10.27.29:978][  0]LogConfig: Setting CVar [[r.DOF.Scatter.EnableBokehSettings:1      ; bokeh simulation when scattering]]
[2022.11.27-10.27.29:978][  0]LogConfig: Setting CVar [[r.DOF.Scatter.MaxSpriteRatio:0.1         ; only a maximum of 10% of scattered bokeh]]
[2022.11.27-10.27.29:978][  0]LogConfig: Setting CVar [[r.DOF.Recombine.Quality:1                ; cheap slight out of focus]]
[2022.11.27-10.27.29:978][  0]LogConfig: Setting CVar [[r.DOF.Recombine.EnableBokehSettings:0    ; no bokeh simulation on slight out of focus]]
[2022.11.27-10.27.29:978][  0]LogConfig: Setting CVar [[r.DOF.TemporalAAQuality:1                ; more stable temporal accumulation]]
[2022.11.27-10.27.29:978][  0]LogConfig: Setting CVar [[r.DOF.Kernel.MaxForegroundRadius:0.025]]
[2022.11.27-10.27.29:978][  0]LogConfig: Setting CVar [[r.DOF.Kernel.MaxBackgroundRadius:0.025]]
[2022.11.27-10.27.29:978][  0]LogConfig: Applying CVar settings from Section [TextureQuality@3] File [D:/Документы/Unreal Projects/HomeWork 9.3.2/Saved/Config/Windows/Scalability.ini]
[2022.11.27-10.27.29:978][  0]LogConfig: Setting CVar [[r.Streaming.MipBias:0]]
[2022.11.27-10.27.29:978][  0]LogConfig: Setting CVar [[r.Streaming.AmortizeCPUToGPUCopy:0]]
[2022.11.27-10.27.29:978][  0]LogConfig: Setting CVar [[r.Streaming.MaxNumTexturesToStreamPerFrame:0]]
[2022.11.27-10.27.29:978][  0]LogConfig: Setting CVar [[r.Streaming.Boost:1]]
[2022.11.27-10.27.29:978][  0]LogConfig: Setting CVar [[r.MaxAnisotropy:8]]
[2022.11.27-10.27.29:978][  0]LogConfig: Setting CVar [[r.VT.MaxAnisotropy:8]]
[2022.11.27-10.27.29:978][  0]LogConfig: Setting CVar [[r.Streaming.LimitPoolSizeToVRAM:0]]
[2022.11.27-10.27.29:978][  0]LogConfig: Setting CVar [[r.Streaming.PoolSize:1000]]
[2022.11.27-10.27.29:978][  0]LogConfig: Setting CVar [[r.Streaming.MaxEffectiveScreenSize:0]]
[2022.11.27-10.27.29:978][  0]LogConfig: Applying CVar settings from Section [EffectsQuality@3] File [D:/Документы/Unreal Projects/HomeWork 9.3.2/Saved/Config/Windows/Scalability.ini]
[2022.11.27-10.27.29:979][  0]LogConfig: Setting CVar [[r.TranslucencyLightingVolumeDim:64]]
[2022.11.27-10.27.29:979][  0]LogConfig: Setting CVar [[r.RefractionQuality:2]]
[2022.11.27-10.27.29:979][  0]LogConfig: Setting CVar [[r.SSR.Quality:3]]
[2022.11.27-10.27.29:979][  0]LogConfig: Setting CVar [[r.SSR.HalfResSceneColor:0]]
[2022.11.27-10.27.29:979][  0]LogConfig: Setting CVar [[r.SceneColorFormat:4]]
[2022.11.27-10.27.29:979][  0]LogConfig: Setting CVar [[r.DetailMode:2]]
[2022.11.27-10.27.29:979][  0]LogConfig: Setting CVar [[r.TranslucencyVolumeBlur:1]]
[2022.11.27-10.27.29:979][  0]LogConfig: Setting CVar [[r.MaterialQualityLevel:1 ; High quality]]
[2022.11.27-10.27.29:979][  0]LogConfig: Setting CVar [[r.AnisotropicMaterials:1]]
[2022.11.27-10.27.29:979][  0]LogConfig: Setting CVar [[r.SSS.Scale:1]]
[2022.11.27-10.27.29:979][  0]LogConfig: Setting CVar [[r.SSS.SampleSet:2]]
[2022.11.27-10.27.29:979][  0]LogConfig: Setting CVar [[r.SSS.Quality:1]]
[2022.11.27-10.27.29:979][  0]LogConfig: Setting CVar [[r.SSS.HalfRes:0]]
[2022.11.27-10.27.29:979][  0]LogConfig: Setting CVar [[r.SSGI.Quality:3]]
[2022.11.27-10.27.29:979][  0]LogConfig: Setting CVar [[r.EmitterSpawnRateScale:1.0]]
[2022.11.27-10.27.29:979][  0]LogConfig: Setting CVar [[r.ParticleLightQuality:2]]
[2022.11.27-10.27.29:979][  0]LogConfig: Setting CVar [[r.SkyAtmosphere.AerialPerspectiveLUT.FastApplyOnOpaque:1 ; Always have FastSkyLUT 1 in this case to avoid wrong sky]]
[2022.11.27-10.27.29:979][  0]LogConfig: Setting CVar [[r.SkyAtmosphere.AerialPerspectiveLUT.SampleCountMaxPerSlice:4]]
[2022.11.27-10.27.29:979][  0]LogConfig: Setting CVar [[r.SkyAtmosphere.AerialPerspectiveLUT.DepthResolution:16.0]]
[2022.11.27-10.27.29:979][  0]LogConfig: Setting CVar [[r.SkyAtmosphere.FastSkyLUT:1]]
[2022.11.27-10.27.29:979][  0]LogConfig: Setting CVar [[r.SkyAtmosphere.FastSkyLUT.SampleCountMin:4.0]]
[2022.11.27-10.27.29:979][  0]LogConfig: Setting CVar [[r.SkyAtmosphere.FastSkyLUT.SampleCountMax:128.0]]
[2022.11.27-10.27.29:979][  0]LogConfig: Setting CVar [[r.SkyAtmosphere.SampleCountMin:4.0]]
[2022.11.27-10.27.29:979][  0]LogConfig: Setting CVar [[r.SkyAtmosphere.SampleCountMax:128.0]]
[2022.11.27-10.27.29:979][  0]LogConfig: Setting CVar [[r.SkyAtmosphere.TransmittanceLUT.UseSmallFormat:0]]
[2022.11.27-10.27.29:979][  0]LogConfig: Setting CVar [[r.SkyAtmosphere.TransmittanceLUT.SampleCount:10.0]]
[2022.11.27-10.27.29:979][  0]LogConfig: Setting CVar [[r.SkyAtmosphere.MultiScatteringLUT.SampleCount:15.0]]
[2022.11.27-10.27.29:979][  0]LogConfig: Setting CVar [[r.SkyLight.RealTimeReflectionCapture:1]]
[2022.11.27-10.27.29:979][  0]LogConfig: Applying CVar settings from Section [FoliageQuality@3] File [D:/Документы/Unreal Projects/HomeWork 9.3.2/Saved/Config/Windows/Scalability.ini]
[2022.11.27-10.27.29:979][  0]LogConfig: Setting CVar [[foliage.DensityScale:1.0]]
[2022.11.27-10.27.29:979][  0]LogConfig: Setting CVar [[grass.DensityScale:1.0]]
[2022.11.27-10.27.29:979][  0]LogConfig: Applying CVar settings from Section [ShadingQuality@3] File [D:/Документы/Unreal Projects/HomeWork 9.3.2/Saved/Config/Windows/Scalability.ini]
[2022.11.27-10.27.29:979][  0]LogConfig: Setting CVar [[r.HairStrands.SkyLighting.IntegrationType:2]]
[2022.11.27-10.27.29:979][  0]LogConfig: Setting CVar [[r.HairStrands.SkyAO.SampleCount:4]]
[2022.11.27-10.27.29:979][  0]LogConfig: Setting CVar [[r.HairStrands.Visibility.MSAA.SamplePerPixel:4]]
[2022.11.27-10.27.29:979][  0]LogConfig: Applying CVar settings from Section [Startup] File [../../../Engine/Config/ConsoleVariables.ini]
[2022.11.27-10.27.29:979][  0]LogConfig: Setting CVar [[net.UseAdaptiveNetUpdateFrequency:0]]
[2022.11.27-10.27.29:979][  0]LogConfig: Setting CVar [[p.chaos.AllowCreatePhysxBodies:1]]
[2022.11.27-10.27.29:979][  0]LogConfig: Setting CVar [[fx.SkipVectorVMBackendOptimizations:1]]
[2022.11.27-10.27.29:979][  0]LogConfig: Applying CVar settings from Section [ConsoleVariables] File [D:/Документы/Unreal Projects/HomeWork 9.3.2/Saved/Config/Windows/Engine.ini]
[2022.11.27-10.27.29:979][  0]LogConfig: Applying CVar settings from Section [ConsoleVariables] File [D:/Документы/Unreal Projects/HomeWork 9.3.2/Saved/Config/Windows/Editor.ini]
[2022.11.27-10.27.29:979][  0]LogInit: Computer: MSI
[2022.11.27-10.27.29:979][  0]LogInit: User: Ruslan
[2022.11.27-10.27.29:979][  0]LogInit: CPU Page size=4096, Cores=4
[2022.11.27-10.27.29:979][  0]LogInit: High frequency timer resolution =10.000000 MHz
[2022.11.27-10.27.29:979][  0]LogMemory: Memory total: Physical=31.8GB (32GB approx)
[2022.11.27-10.27.29:979][  0]LogMemory: Platform Memory Stats for Windows
[2022.11.27-10.27.29:979][  0]LogMemory: Process Physical Memory: 143.93 MB used, 143.93 MB peak
[2022.11.27-10.27.29:979][  0]LogMemory: Process Virtual Memory: 128.76 MB used, 128.76 MB peak
[2022.11.27-10.27.29:979][  0]LogMemory: Physical Memory: 6803.21 MB used,  25807.40 MB free, 32610.61 MB total
[2022.11.27-10.27.29:979][  0]LogMemory: Virtual Memory: 134187984.00 MB used,  29745.07 MB free, 134217728.00 MB total
[2022.11.27-10.27.29:984][  0]LogWindows: WindowsPlatformFeatures enabled
[2022.11.27-10.27.30:024][  0]LogInit: Physics initialised using underlying interface: PhysX
[2022.11.27-10.27.30:024][  0]LogInit: Using OS detected language (ru-RU).
[2022.11.27-10.27.30:024][  0]LogInit: Using OS detected locale (ru-RU).
[2022.11.27-10.27.30:026][  0]LogTextLocalizationManager: No specific localization for 'ru-RU' exists, so the 'ru' localization will be used.
[2022.11.27-10.27.30:027][  0]LogTextLocalizationResource: LocRes '../../../Engine/Content/Localization/Editor/ru/Editor.locres' could not be opened for reading!
[2022.11.27-10.27.30:027][  0]LogTextLocalizationResource: LocRes '../../../Engine/Content/Localization/EditorTutorials/ru/EditorTutorials.locres' could not be opened for reading!
[2022.11.27-10.27.30:027][  0]LogTextLocalizationResource: LocRes '../../../Engine/Content/Localization/Keywords/ru/Keywords.locres' could not be opened for reading!
[2022.11.27-10.27.30:027][  0]LogTextLocalizationResource: LocRes '../../../Engine/Content/Localization/Category/ru/Category.locres' could not be opened for reading!
[2022.11.27-10.27.30:027][  0]LogTextLocalizationResource: LocRes '../../../Engine/Content/Localization/ToolTips/ru/ToolTips.locres' could not be opened for reading!
[2022.11.27-10.27.30:027][  0]LogTextLocalizationResource: LocRes '../../../Engine/Content/Localization/PropertyNames/ru/PropertyNames.locres' could not be opened for reading!
[2022.11.27-10.27.30:027][  0]LogTextLocalizationResource: LocRes '../../../Engine/Content/Localization/Engine/ru/Engine.locres' could not be opened for reading!
[2022.11.27-10.27.30:028][  0]LogInit: Setting process to per monitor DPI aware
[2022.11.27-10.27.30:034][  0]LogWindowsTextInputMethodSystem: Display: IME system deactivated.
[2022.11.27-10.27.30:043][  0]LogSlate: New Slate User Created.  User Index 0, Is Virtual User: 0
[2022.11.27-10.27.30:043][  0]LogSlate: Slate User Registered.  User Index 0, Is Virtual User: 0
[2022.11.27-10.27.30:206][  0]LogD3D11RHI: Loaded GFSDK_Aftermath_Lib.x64.dll
[2022.11.27-10.27.30:226][  0]LogHMD: Failed to initialize OpenVR with code 110
[2022.11.27-10.27.30:226][  0]LogD3D11RHI: D3D11 min allowed feature level: 11_0
[2022.11.27-10.27.30:226][  0]LogD3D11RHI: D3D11 max allowed feature level: 11_0
[2022.11.27-10.27.30:226][  0]LogD3D11RHI: D3D11 adapters:
[2022.11.27-10.27.30:310][  0]LogD3D11RHI:    0. 'NVIDIA GeForce GTX 1660 Ti' (Feature Level 11_0)
[2022.11.27-10.27.30:310][  0]LogD3D11RHI:       5979/0/16305 MB DedicatedVideo/DedicatedSystem/SharedSystem, Outputs:1, VendorId:0x10de
[2022.11.27-10.27.30:325][  0]LogD3D11RHI:    1. 'Intel(R) UHD Graphics 630' (Feature Level 11_0)
[2022.11.27-10.27.30:325][  0]LogD3D11RHI:       128/0/16305 MB DedicatedVideo/DedicatedSystem/SharedSystem, Outputs:0, VendorId:0x8086
[2022.11.27-10.27.30:327][  0]LogD3D11RHI:    2. 'Microsoft Basic Render Driver' (Feature Level 11_0)
[2022.11.27-10.27.30:327][  0]LogD3D11RHI:       0/0/16305 MB DedicatedVideo/DedicatedSystem/SharedSystem, Outputs:0, VendorId:0x1414
[2022.11.27-10.27.30:327][  0]LogD3D11RHI: Chosen D3D11 Adapter:
[2022.11.27-10.27.30:327][  0]LogD3D11RHI:     Description : NVIDIA GeForce GTX 1660 Ti
[2022.11.27-10.27.30:327][  0]LogD3D11RHI:     VendorId    : 10de
[2022.11.27-10.27.30:327][  0]LogD3D11RHI:     DeviceId    : 2191
[2022.11.27-10.27.30:328][  0]LogD3D11RHI:     SubSysId    : 129a1462
[2022.11.27-10.27.30:328][  0]LogD3D11RHI:     Revision    : 00a1
[2022.11.27-10.27.30:328][  0]LogD3D11RHI:     DedicatedVideoMemory : 6269435904 bytes
[2022.11.27-10.27.30:328][  0]LogD3D11RHI:     DedicatedSystemMemory : 0 bytes
[2022.11.27-10.27.30:328][  0]LogD3D11RHI:     SharedSystemMemory : 17097349120 bytes
[2022.11.27-10.27.30:328][  0]LogD3D11RHI:     AdapterLuid : 0 3147393937
[2022.11.27-10.27.30:332][  0]LogD3D11RHI: Creating new Direct3DDevice
[2022.11.27-10.27.30:332][  0]LogD3D11RHI:     GPU DeviceId: 0x2191 (for the marketing name, search the web for "GPU Device Id")
[2022.11.27-10.27.30:332][  0]LogWindows: EnumDisplayDevices:
[2022.11.27-10.27.30:332][  0]LogWindows:    0. 'Intel(R) UHD Graphics 630' (P:1 D:1)
[2022.11.27-10.27.30:332][  0]LogWindows:    1. 'Intel(R) UHD Graphics 630' (P:0 D:0)
[2022.11.27-10.27.30:333][  0]LogWindows:    2. 'Intel(R) UHD Graphics 630' (P:0 D:0)
[2022.11.27-10.27.30:333][  0]LogWindows:    3. 'NVIDIA GeForce GTX 1660 Ti' (P:0 D:0)
[2022.11.27-10.27.30:333][  0]LogWindows:    4. 'NVIDIA GeForce GTX 1660 Ti' (P:0 D:0)
[2022.11.27-10.27.30:333][  0]LogWindows:    5. 'NVIDIA GeForce GTX 1660 Ti' (P:0 D:0)
[2022.11.27-10.27.30:333][  0]LogWindows:    6. 'NVIDIA GeForce GTX 1660 Ti' (P:0 D:0)
[2022.11.27-10.27.30:333][  0]LogWindows: DebugString: PrimaryIsNotTheChoosenAdapter PrimaryIsNotTheChoosenAdapter PrimaryIsNotTheChoosenAdapter FoundDriverCount:4 
[2022.11.27-10.27.30:333][  0]LogD3D11RHI:     Adapter Name: NVIDIA GeForce GTX 1660 Ti
[2022.11.27-10.27.30:333][  0]LogD3D11RHI:   Driver Version: 526.98 (internal:31.0.15.2698, unified:526.98)
[2022.11.27-10.27.30:333][  0]LogD3D11RHI:      Driver Date: 11-13-2022
[2022.11.27-10.27.30:333][  0]LogRHI: Texture pool is 4185 MB (70% of 5979 MB)
[2022.11.27-10.27.30:333][  0]LogD3D11RHI: Creating D3DDevice using adapter:
[2022.11.27-10.27.30:333][  0]LogD3D11RHI:     Description : NVIDIA GeForce GTX 1660 Ti
[2022.11.27-10.27.30:334][  0]LogD3D11RHI:     VendorId    : 10de
[2022.11.27-10.27.30:334][  0]LogD3D11RHI:     DeviceId    : 2191
[2022.11.27-10.27.30:334][  0]LogD3D11RHI:     SubSysId    : 129a1462
[2022.11.27-10.27.30:334][  0]LogD3D11RHI:     Revision    : 00a1
[2022.11.27-10.27.30:334][  0]LogD3D11RHI:     DedicatedVideoMemory : 6269435904 bytes
[2022.11.27-10.27.30:334][  0]LogD3D11RHI:     DedicatedSystemMemory : 0 bytes
[2022.11.27-10.27.30:334][  0]LogD3D11RHI:     SharedSystemMemory : 17097349120 bytes
[2022.11.27-10.27.30:334][  0]LogD3D11RHI:     AdapterLuid : 0 3147393937
[2022.11.27-10.27.30:374][  0]LogD3D11RHI: RHI has support for 64 bit atomics
[2022.11.27-10.27.30:374][  0]LogD3D11RHI: Async texture creation enabled
[2022.11.27-10.27.30:374][  0]LogD3D11RHI: Array index from any shader is supported
[2022.11.27-10.27.30:394][  0]LogD3D11RHI: GPU Timing Frequency: 1000.000000 (Debug: 2 1)
[2022.11.27-10.27.30:427][  0]LogRHI: GeForceNow SDK initialized: 1
[2022.11.27-10.27.30:667][  0]LogTargetPlatformManager: Display: Loaded TargetPlatform 'AllDesktop'
[2022.11.27-10.27.30:684][  0]LogTargetPlatformManager: Display: Loaded TargetPlatform 'Android'
[2022.11.27-10.27.30:684][  0]LogTargetPlatformManager: Display: Loaded TargetPlatform 'Android_ASTC'
[2022.11.27-10.27.30:684][  0]LogTargetPlatformManager: Display: Loaded TargetPlatform 'Android_DXT'
[2022.11.27-10.27.30:684][  0]LogTargetPlatformManager: Display: Loaded TargetPlatform 'Android_ETC2'
[2022.11.27-10.27.30:684][  0]LogTargetPlatformManager: Display: Loaded TargetPlatform 'AndroidClient'
[2022.11.27-10.27.30:684][  0]LogTargetPlatformManager: Display: Loaded TargetPlatform 'Android_ASTCClient'
[2022.11.27-10.27.30:684][  0]LogTargetPlatformManager: Display: Loaded TargetPlatform 'Android_DXTClient'
[2022.11.27-10.27.30:684][  0]LogTargetPlatformManager: Display: Loaded TargetPlatform 'Android_ETC2Client'
[2022.11.27-10.27.30:684][  0]LogTargetPlatformManager: Display: Loaded TargetPlatform 'Android_Multi'
[2022.11.27-10.27.30:684][  0]LogTargetPlatformManager: Display: Loaded TargetPlatform 'Android_MultiClient'
[2022.11.27-10.27.30:699][  0]LogTargetPlatformManager: Display: Loaded TargetPlatform 'IOSClient'
[2022.11.27-10.27.30:699][  0]LogTargetPlatformManager: Display: Loaded TargetPlatform 'IOS'
[2022.11.27-10.27.30:706][  0]LogTargetPlatformManager: Display: Loaded TargetPlatform 'Linux'
[2022.11.27-10.27.30:710][  0]LogTargetPlatformManager: Display: Loaded TargetPlatform 'LinuxNoEditor'
[2022.11.27-10.27.30:714][  0]LogTargetPlatformManager: Display: Loaded TargetPlatform 'LinuxClient'
[2022.11.27-10.27.30:718][  0]LogTargetPlatformManager: Display: Loaded TargetPlatform 'LinuxServer'
[2022.11.27-10.27.30:725][  0]LogTargetPlatformManager: Display: Loaded TargetPlatform 'LinuxAArch64NoEditor'
[2022.11.27-10.27.30:729][  0]LogTargetPlatformManager: Display: Loaded TargetPlatform 'LinuxAArch64Client'
[2022.11.27-10.27.30:732][  0]LogTargetPlatformManager: Display: Loaded TargetPlatform 'LinuxAArch64Server'
[2022.11.27-10.27.30:752][  0]LogTargetPlatformManager: Display: Loaded TargetPlatform 'Lumin'
[2022.11.27-10.27.30:752][  0]LogTargetPlatformManager: Display: Loaded TargetPlatform 'LuminClient'
[2022.11.27-10.27.30:758][  0]LogTargetPlatformManager: Display: Loaded TargetPlatform 'MacNoEditor'
[2022.11.27-10.27.30:761][  0]LogTargetPlatformManager: Display: Loaded TargetPlatform 'Mac'
[2022.11.27-10.27.30:765][  0]LogTargetPlatformManager: Display: Loaded TargetPlatform 'MacClient'
[2022.11.27-10.27.30:770][  0]LogTargetPlatformManager: Display: Loaded TargetPlatform 'MacServer'
[2022.11.27-10.27.30:778][  0]LogTargetPlatformManager: Display: Loaded TargetPlatform 'TVOSClient'
[2022.11.27-10.27.30:778][  0]LogTargetPlatformManager: Display: Loaded TargetPlatform 'TVOS'
[2022.11.27-10.27.30:785][  0]LogTargetPlatformManager: Display: Loaded TargetPlatform 'WindowsNoEditor'
[2022.11.27-10.27.30:790][  0]LogTargetPlatformManager: Display: Loaded TargetPlatform 'Windows'
[2022.11.27-10.27.30:793][  0]LogTargetPlatformManager: Display: Loaded TargetPlatform 'WindowsClient'
[2022.11.27-10.27.30:797][  0]LogTargetPlatformManager: Display: Loaded TargetPlatform 'WindowsServer'
[2022.11.27-10.27.30:797][  0]LogTargetPlatformManager: Display: Building Assets For Windows
[2022.11.27-10.27.30:804][  0]LogAudioDebug: Display: Lib vorbis DLL was dynamically loaded.
[2022.11.27-10.27.30:829][  0]LogTextureFormatOodle: Display: Oodle Texture 2.9.0 init RDO Off
[2022.11.27-10.27.30:856][  0]LogRendererCore: Ray tracing is disabled. Reason: r.RayTracing=0.
[2022.11.27-10.27.30:856][  0]LogShaderCompilers: Guid format shader working directory is -8 characters bigger than the processId version (../../../../../Документы/Unreal Projects/HomeWork 9.3.2/Intermediate/Shaders/WorkingDirectory/6960/).
[2022.11.27-10.27.30:856][  0]LogShaderCompilers: Cleaned the shader compiler working directory 'C:/Users/Ruslan/AppData/Local/Temp/UnrealShaderWorkingDir/84E204B246E4D517C28E629323DE0EFA/'.
[2022.11.27-10.27.30:856][  0]LogXGEController: Cannot use XGE Controller as Incredibuild is not installed on this machine.
[2022.11.27-10.27.30:856][  0]LogShaderCompilers: Cannot use XGE Shader Compiler as Incredibuild is not installed on this machine.
[2022.11.27-10.27.30:856][  0]LogShaderCompilers: Display: Using Local Shader Compiler.
[2022.11.27-10.27.31:567][  0]LogDerivedDataCache: Display: Max Cache Size: 512 MB
[2022.11.27-10.27.31:613][  0]LogDerivedDataCache: Loaded boot cache 0.05s 94MB C:/Users/Ruslan/AppData/Local/UnrealEngine/4.27/DerivedDataCache/Boot.ddc.
[2022.11.27-10.27.31:613][  0]LogDerivedDataCache: Display: Loaded Boot cache: C:/Users/Ruslan/AppData/Local/UnrealEngine/4.27/DerivedDataCache/Boot.ddc
[2022.11.27-10.27.31:613][  0]LogDerivedDataCache: FDerivedDataBackendGraph:  Pak pak cache file ../../../../../Документы/Unreal Projects/HomeWork 9.3.2/DerivedDataCache/DDC.ddp not found, will not use a pak cache.
[2022.11.27-10.27.31:613][  0]LogDerivedDataCache: Unable to find inner node Pak for hierarchical cache Hierarchy.
[2022.11.27-10.27.31:613][  0]LogDerivedDataCache: FDerivedDataBackendGraph:  CompressedPak pak cache file ../../../../../Документы/Unreal Projects/HomeWork 9.3.2/DerivedDataCache/Compressed.ddp not found, will not use a pak cache.
[2022.11.27-10.27.31:613][  0]LogDerivedDataCache: Unable to find inner node CompressedPak for hierarchical cache Hierarchy.
[2022.11.27-10.27.31:628][  0]LogDerivedDataCache: Display: Pak cache opened for reading ../../../Engine/DerivedDataCache/Compressed.ddp.
[2022.11.27-10.27.31:628][  0]LogDerivedDataCache: FDerivedDataBackendGraph:  EnterprisePak pak cache file ../../../Enterprise/DerivedDataCache/Compressed.ddp not found, will not use a pak cache.
[2022.11.27-10.27.31:628][  0]LogDerivedDataCache: Unable to find inner node EnterprisePak for hierarchical cache Hierarchy.
[2022.11.27-10.27.31:636][  0]LogDerivedDataCache: Speed tests for C:/Users/Ruslan/AppData/Local/UnrealEngine/Common/DerivedDataCache took 0.01 seconds
[2022.11.27-10.27.31:636][  0]LogDerivedDataCache: Display: Performance to C:/Users/Ruslan/AppData/Local/UnrealEngine/Common/DerivedDataCache: Latency=0.02ms. RandomReadSpeed=1516.12MBs, RandomWriteSpeed=146.90MBs. Assigned SpeedClass 'Local'
[2022.11.27-10.27.31:637][  0]LogDerivedDataCache: Using Local data cache path C:/Users/Ruslan/AppData/Local/UnrealEngine/Common/DerivedDataCache: Writable
[2022.11.27-10.27.31:637][  0]LogDerivedDataCache: Shared data cache path not found in *engine.ini, will not use an Shared cache.
[2022.11.27-10.27.31:637][  0]LogDerivedDataCache: Unable to find inner node Shared for hierarchical cache Hierarchy.
[2022.11.27-10.27.31:679][  0]LogSlate: Using FreeType 2.10.0
[2022.11.27-10.27.31:679][  0]LogSlate: SlateFontServices - WITH_FREETYPE: 1, WITH_HARFBUZZ: 1
[2022.11.27-10.27.31:702][  0]LogAssetRegistry: FAssetRegistry took 0.0022 seconds to start up
[2022.11.27-10.27.31:928][  0]LogInit: Selected Device Profile: [Windows]
[2022.11.27-10.27.31:928][  0]LogInit: Active device profile: [0000026031BBC900][000002602EB27480 49] Windows
[2022.11.27-10.27.31:928][  0]LogInit: Profiles: [0000026031BBC900][000002602EB27480 49] Windows, [0000026031B87800][000002602EB39600 49] WindowsNoEditor, [0000026031BBF500][000002602EB3D780 49] WindowsServer, [0000026031B84E00][000002602D637900 49] WindowsClient, [0000026031BBF800][000002602D63BA80 49] IOS, [0000026031B86800][000002602D63FC00 49] iPadAir, [0000026031BBE000][000002602E59A200 49] iPadAir2, [0000026031B34A00][000002602E5A24C0 49] IPadPro, [0000026031B34B00][000002602E59E500 49] iPadAir3, [0000026031B85900][000002602E5A6680 49] iPadAir4, [0000026031B37400][000002602EB2A7C0 49] iPadMini2, [0000026031B86A00][000002602E5AA900 49] iPadMini3, [0000026031B35700][000002602E5AEA40 49] iPadMini4, [0000026031BBD100][000002602E5B2B80 49] iPadMini5, [0000026031B78300][000002602DE7EE40 49] iPhone6, [0000026031B78400][000002602E5BAE80 49] iPodTouch6, [0000026031B27F00][000002602DE87140 49] iPhone7, [0000026031B27E00][000002602DE83180 49] iPodTouch7, [0000026031B86000][000002602DE8B300 49] iPhone5S, [0000026031B25A00][000002602DE8F480 49] iPhone6Plus, [0000026031B78200][000002602DE93600 49] iPhone6S, [0000026031B24600][000002602DE97780 49] iPhone6SPlus, [0000026031B7A900][000002602DE9B900 49] iPhone7Plus, [0000026031B27100][000002602DE9FA80 49] iPhoneSE, [0000026031B7A200][000002602DEA3C00 49] iPhone8, [0000026031B27B00][000002602DEA6200 49] iPhone8Plus, [0000026031B78A00][000002602DEAA380 49] iPhoneX, [0000026031B25400][000002602EA8E500 49] iPhoneXS, [0000026031B7B900][000002602EA92680 49] iPhoneXSMax, [0000026031B24900][000002602EA96800 49] iPhoneXR, [0000026031B7AF00][000002602E5B6940 49] iPhone11, [0000026031B25300][000002602EA9AA80 49] iPhone11Pro, [0000026031B79000][000002602EA9EBC0 49] iPhone11ProMax, [0000026031B26A00][000002602EAA2D00 49] iPhoneSE2, [0000026031B79400][000002602EAAAE80 49] iPhone12Mini, [0000026031B26400][000002602EAAF000 49] iPhone12, [0000026031B78D00][000002602EAB3180 49] iPhone12Pro, [0000026031B26B00][000002602EAB7300 49] iPhone12ProMax, [0000026031B7B000][000002602EABB480 49] iPadPro105, [0000026031B24700][000002602EABF600 49] iPadPro129, [0000026031B7A800][000002602EAC3780 49] iPadPro97, [0000026031B26600][000002602EAC7900 49] iPadPro2_129, [0000026031B7BC00][000002602EC35A80 49] iPad5, [0000026031B26200][000002602EC39C00 49] iPad6, [0000026031B78F00][000002602EC3C200 49] iPad7, [0000026031B26D00][000002602EB22380 49] iPad8, [0000026031B79100][000002602EB4A500 49] iPadPro11, [0000026031B25600][000002602EC40680 49] iPadPro2_11, [0000026031B7B400][000002602D5C8800 49] iPadPro3_129, [0000026031B26800][000002602ED84980 49] iPadPro4_129, [0000026031B7BA00][000002602EC44B00 49] AppleTV, [0000026031B26100][000002602EAA6C40 49] AppleTV4K, [0000026031B79F00][000002602EC48D80 49] TVOS, [0000026031B27400][000002602EC4CEC0 49] Mac, [0000026031B7B800][000002602EC55040 49] MacClient, [0000026031B25E00][000002602EC591C0 49] MacNoEditor, [0000026031B7BF00][000002602EC5D340 49] MacServer, [0000026031B27500][000002602EC614C0 49] Linux, [0000026031B78C00][000002602EC65640 49] LinuxAArch64, [0000026031B26F00][000002602EC697C0 49] LinuxNoEditor, [0000026031B78B00][000002602EC6D940 49] LinuxAArch64NoEditor, [0000026031B27700][000002602EC71AC0 49] LinuxClient, [0000026031B79A00][000002602EC740C0 49] LinuxAArch64Client, [0000026031B25000][000002602E8D6240 49] LinuxServer, [0000026031B7A500][000002602E8DA3C0 49] LinuxAArch64Server, [0000026031B25900][000002602E8DE540 49] Android, [0000026031B79300][000002602D5EC6C0 49] Android_Low, [0000026031B26700][000002602D5F0840 49] Android_Mid, [0000026031B7AB00][000002602D5F49C0 49] Android_High, [0000026031B27800][000002602D5F8B40 49] Android_Default, [0000026031B79600][000002602D5FCCC0 49] Android_Adreno4xx, [0000026031B25500][000002602EC50E00 49] Android_Adreno5xx_Low, [0000026031B37600][000002602D600F40 49] Android_Adreno5xx, [0000026031B85800][000002602D605080 49] Android_Adreno6xx, [0000026031B35200][000002602D6091C0 49] Android_Adreno6xx_Vulkan, [0000026031B87C00][000002602D6B3340 49] Android_Mali_T6xx, [0000026031B35100][000002602D6B74C0 49] Android_Mali_T7xx, [0000026031B85600][000002602D6BB640 49] Android_Mali_T8xx, [0000026031B35E00][000002602D6BF7C0 49] Android_Mali_G71, [0000026031B84500][000002602D6C3940 49] Android_Mali_G72, [0000026031B34800][000002602D6C7AC0 49] Android_Mali_G72_Vulkan, [0000026031B85300][000002602D6CA0C0 49] Android_Mali_G76, [0000026031B34100][000002602D6CE240 49] Android_Mali_G76_Vulkan, [0000026031B85F00][000002602D6D23C0 49] Android_Mali_G77, [0000026031B35000][000002602D6D6540 49] Android_Mali_G77_Vulkan, [0000026031B84A00][000002602D6DA6C0 49] Android_Mali_G78, [0000026031B36C00][000002602D6DE840 49] Android_Mali_G78_Vulkan, [0000026031B87600][000002602D6E29C0 49] Android_Mali_G710, [0000026031B36A00][000002602E8E2B40 49] Android_Mali_G710_Vulkan, [0000026031B87F00][000002602E8E6CC0 49] Android_Vulkan_SM5, [0000026031B37B00][000002602E8EAE40 49] Android_PowerVR_G6xxx, [0000026031B87B00][000002602D6AEF80 49] Android_PowerVR_GT7xxx, [0000026031B37900][000002602E8EF0C0 49] Android_PowerVR_GE8xxx, [0000026031B84C00][000002602E8F3200 49] Android_PowerVR_GM9xxx, [0000026031B36700][000002602E8F7340 49] Android_PowerVR_GM9xxx_Vulkan, [0000026031B86700][000002602E8FF4C0 49] Android_TegraK1, [0000026031B34900][000002602E903640 49] Android_Unknown_Vulkan, [0000026031B85D00][000002602E9077C0 49] Lumin, [0000026031B34500][000002602E90B940 49] Lumin_Desktop, [0000026031B87300][000002602E90FAC0 49] HoloLens, 
[2022.11.27-10.27.32:042][  0]LogMeshReduction: Using QuadricMeshReduction for automatic static mesh reduction
[2022.11.27-10.27.32:042][  0]LogMeshReduction: Using SimplygonMeshReduction for automatic skeletal mesh reduction
[2022.11.27-10.27.32:042][  0]LogMeshReduction: Using ProxyLODMeshReduction for automatic mesh merging
[2022.11.27-10.27.32:042][  0]LogMeshReduction: No distributed automatic mesh merging module available
[2022.11.27-10.27.32:042][  0]LogMeshMerging: No distributed automatic mesh merging module available
[2022.11.27-10.27.32:055][  0]LogNetVersion: HW932 1.0.0, NetCL: 17155196, EngineNetVer: 17, GameNetVer: 0 (Checksum: 1376403375)
[2022.11.27-10.27.32:423][  0]LogTexture: Default maximum texture size for cubemaps generated from long-lat sources has been changed from 512 to unlimited. In order to preserve old behaiour for '/Engine/MapTemplates/Sky/DaylightAmbientCubemap.DaylightAmbientCubemap', its maximum texture size has been explicitly set to 512.
[2022.11.27-10.27.32:467][  0]LogHMD: PokeAHoleMaterial loaded successfully
[2022.11.27-10.27.32:472][  0]LogUObjectArray: 17178 objects as part of root set at end of initial load.
[2022.11.27-10.27.32:472][  0]LogUObjectAllocator: 4302048 out of 0 bytes used by permanent object pool.
[2022.11.27-10.27.32:472][  0]LogUObjectArray: CloseDisregardForGC: 0/0 objects in disregard for GC pool
[2022.11.27-10.27.32:711][  0]LogNiagaraDebuggerClient: Niagara Debugger Client Initialized | Session: 2FE029AC4DB081C60A978FA9F6774CE7 | Instance: 953DD61A4E13C497A400BA8229F660E4 (MSI-6960).
[2022.11.27-10.27.32:749][  0]LogPython: Using Python 3.7.7
[2022.11.27-10.27.33:317][  0]LogTcpMessaging: Initializing TcpMessaging bridge
[2022.11.27-10.27.33:325][  0]LogUdpMessaging: Initializing bridge on interface 0.0.0.0:0 to multicast group 230.0.0.1:6666.
[2022.11.27-10.27.33:383][  0]LogLinker: Warning: Failed to load '/Game/TopDownBP/TopDownOverview': Can't find file.
[2022.11.27-10.27.33:383][  0]LogLinker: Warning: Failed to load '/Game/TopDownBP/TopDownOverview': Can't find file.
[2022.11.27-10.27.33:383][  0]LogUObjectGlobals: Warning: Failed to find object 'Class /Game/TopDownBP/TopDownOverview.TopDownOverview_C'
[2022.11.27-10.27.33:515][  0]SourceControl: Source control is disabled
[2022.11.27-10.27.33:661][  0]LogSourceControl: Warning: '../../../../../Документы/Unreal Projects/HomeWork 9.3.2/' is not part of a Git repository
[2022.11.27-10.27.33:746][  0]LogUProjectInfo: Found projects:
[2022.11.27-10.27.33:914][  0]LogOpenImageDenoise: OIDN starting up
[2022.11.27-10.27.33:959][  0]LogAndroidPermission: UAndroidPermissionCallbackProxy::GetInstance
[2022.11.27-10.27.33:984][  0]LogAudioCaptureCore: Display: No Audio Capture implementations found. Audio input will be silent.
[2022.11.27-10.27.33:984][  0]LogAudioCaptureCore: Display: No Audio Capture implementations found. Audio input will be silent.
[2022.11.27-10.27.34:101][  0]LogCollectionManager: Loaded 0 collections in 0.000589 seconds
[2022.11.27-10.27.34:122][  0]LogFileCache: Scanning file cache for directory 'D:/Документы/Unreal Projects/HomeWork 9.3.2/Saved/Collections/' took 0.00s
[2022.11.27-10.27.34:122][  0]LogFileCache: Scanning file cache for directory 'D:/Документы/Unreal Projects/HomeWork 9.3.2/Content/Developers/Ruslan/Collections/' took 0.00s
[2022.11.27-10.27.34:122][  0]LogFileCache: Scanning file cache for directory 'D:/Документы/Unreal Projects/HomeWork 9.3.2/Content/Collections/' took 0.00s
[2022.11.27-10.27.34:122][  0]LogOcInput: OculusInput pre-init called
[2022.11.27-10.27.34:349][  0]LogEngine: Initializing Engine...
[2022.11.27-10.27.34:351][  0]LogHMD: Failed to enumerate extensions. Please check that you have a valid OpenXR runtime installed.
[2022.11.27-10.27.34:351][  0]LogHMD: Failed to initialize OpenVR with code 110
[2022.11.27-10.27.34:351][  0]LogMagicLeap: Warning: VR disabled because ZI is not enabled.  To enable, in the editor, Edit -> Project Settings -> Plugins -> Magic Leap Plugin -> Enable Zero Iteration
[2022.11.27-10.27.34:352][  0]LogStats: UGameplayTagsManager::InitializeManager -  0.000 s
[2022.11.27-10.27.34:522][  0]LogInit: Initializing FReadOnlyCVARCache
[2022.11.27-10.27.34:533][  0]LogAIModule: Creating AISystem for world Untitled
[2022.11.27-10.27.34:534][  0]LogAudio: Display: Initializing Audio Device Manager...
[2022.11.27-10.27.34:538][  0]LogAudio: Display: Loading Default Audio Settings Objects...
[2022.11.27-10.27.34:539][  0]LogAudio: Display: No default SoundConcurrencyObject specified (or failed to load).
[2022.11.27-10.27.34:539][  0]LogAudio: Display: Audio Device Manager Initialized
[2022.11.27-10.27.34:539][  0]LogAudio: Display: Creating Audio Device:                 Id: 1, Scope: Shared, Realtime: True
[2022.11.27-10.27.34:540][  0]LogAudioMixer: Display: Audio Mixer Platform Settings:
[2022.11.27-10.27.34:540][  0]LogAudioMixer: Display: 	Sample Rate:						  48000
[2022.11.27-10.27.34:540][  0]LogAudioMixer: Display: 	Callback Buffer Frame Size Requested: 1024
[2022.11.27-10.27.34:540][  0]LogAudioMixer: Display: 	Callback Buffer Frame Size To Use:	  1024
[2022.11.27-10.27.34:540][  0]LogAudioMixer: Display: 	Number of buffers to queue:			  2
[2022.11.27-10.27.34:540][  0]LogAudioMixer: Display: 	Max Channels (voices):				  32
[2022.11.27-10.27.34:540][  0]LogAudioMixer: Display: 	Number of Async Source Workers:		  0
[2022.11.27-10.27.34:540][  0]LogAudio: Display: AudioDevice MaxSources: 32
[2022.11.27-10.27.34:540][  0]LogAudio: Display: Audio Spatialization Plugin: None (built-in).
[2022.11.27-10.27.34:540][  0]LogAudio: Display: Audio Reverb Plugin: None (built-in).
[2022.11.27-10.27.34:540][  0]LogAudio: Display: Audio Occlusion Plugin: None (built-in).
[2022.11.27-10.27.34:540][  0]LogAudioMixer: Display: Initializing audio mixer.
[2022.11.27-10.27.34:576][  0]LogAudioMixer: Display: 0: FrontLeft
[2022.11.27-10.27.34:576][  0]LogAudioMixer: Display: 1: FrontRight
[2022.11.27-10.27.34:654][  0]LogAudioMixer: Display: Using Audio Device Динамики (3- Realtek(R) Audio)
[2022.11.27-10.27.34:654][  0]LogAudioMixer: Display: Initializing Sound Submixes...
[2022.11.27-10.27.34:657][  0]LogAudioMixer: Display: Creating Master Submix 'MasterSubmixDefault'
[2022.11.27-10.27.34:657][  0]LogAudioMixer: Display: Creating Master Submix 'MasterReverbSubmixDefault'
[2022.11.27-10.27.34:658][  0]LogAudioMixer: Display: Creating Master Submix 'MasterEQSubmixDefault'
[2022.11.27-10.27.34:658][  0]LogAudioMixer: FMixerPlatformXAudio2::StartAudioStream() called
[2022.11.27-10.27.34:658][  0]LogAudioMixer: Display: Output buffers initialized: Frames=1024, Channels=2, Samples=2048
[2022.11.27-10.27.34:659][  0]LogAudioMixer: Display: Starting AudioMixerPlatformInterface::RunInternal()
[2022.11.27-10.27.34:659][  0]LogAudioMixer: Display: FMixerPlatformXAudio2::SubmitBuffer() called for the first time
[2022.11.27-10.27.34:659][  0]LogInit: FAudioDevice initialized.
[2022.11.27-10.27.34:659][  0]LogAudio: Display: Audio Device (ID: 1) registered with world 'Untitled'.
[2022.11.27-10.27.34:659][  0]LogNetVersion: Set ProjectVersion to 1.0.0.0. Version Checksum will be recalculated on next use.
[2022.11.27-10.27.34:725][  0]LogDerivedDataCache: Saved boot cache 0.07s 94MB C:/Users/Ruslan/AppData/Local/UnrealEngine/4.27/DerivedDataCache/Boot.ddc.
[2022.11.27-10.27.34:725][  0]LogInit: Texture streaming: Enabled
[2022.11.27-10.27.34:737][  0]LogAnalytics: Display: [UEEditor.Rocket.Release] APIServer = https://datarouter.ol.epicgames.com/. AppVersion = 4.27.2-18319896+++UE4+Release-4.27
[2022.11.27-10.27.34:740][  0]LogEngineSessionManager: EngineSessionManager initialized
[2022.11.27-10.27.34:740][  0]LogEditorSessionSummary: Verbose: Initializing EditorSessionSummaryWriter for editor session tracking
[2022.11.27-10.27.34:742][  0]LogEditorSessionSummary: EditorSessionSummaryWriter initialized
[2022.11.27-10.27.34:763][  0]LogInit: Transaction tracking system initialized
[2022.11.27-10.27.34:782][  0]BlueprintLog: New page: Editor Load
[2022.11.27-10.27.34:836][  0]LocalizationService: Localization service is disabled
[2022.11.27-10.27.34:857][  0]TimingProfiler: Initialize
[2022.11.27-10.27.34:857][  0]TimingProfiler: OnSessionChanged
[2022.11.27-10.27.34:857][  0]LoadingProfiler: Initialize
[2022.11.27-10.27.34:857][  0]LoadingProfiler: OnSessionChanged
[2022.11.27-10.27.34:857][  0]NetworkingProfiler: Initialize
[2022.11.27-10.27.34:857][  0]NetworkingProfiler: OnSessionChanged
[2022.11.27-10.27.34:857][  0]MemoryProfiler: Initialize
[2022.11.27-10.27.34:857][  0]MemoryProfiler: OnSessionChanged
[2022.11.27-10.27.34:989][  0]LogCook: Display: CookSettings for Memory: MemoryMaxUsedVirtual 0MiB, MemoryMaxUsedPhysical 16384MiB, MemoryMinFreeVirtual 0MiB, MemoryMinFreePhysical 1024MiB
[2022.11.27-10.27.34:989][  0]LogCook: Display: Mobile HDR setting 1
[2022.11.27-10.27.35:158][  0]LogFileCache: Scanning file cache for directory 'D:/Документы/Unreal Projects/HomeWork 9.3.2/Content/' took 0.04s
[2022.11.27-10.27.35:346][  0]LogInit: Display: Engine is initialized. Leaving FEngineLoop::Init()
[2022.11.27-10.27.35:349][  0]LogUnrealEdMisc: Loading editor; pre map load, took 6.404
[2022.11.27-10.27.35:349][  0]Cmd: MAP LOAD FILE="../../../../../Документы/Unreal Projects/HomeWork 9.3.2/Content/NewMap.umap" TEMPLATE=0 SHOWPROGRESS=1 FEATURELEVEL=3
[2022.11.27-10.27.35:354][  0]LightingResults: New page: Lighting Build
[2022.11.27-10.27.35:355][  0]LogWorld: UWorld::CleanupWorld for Untitled, bSessionEnded=true, bCleanupResources=true
[2022.11.27-10.27.35:355][  0]LogSlate: InvalidateAllWidgets triggered.  All widgets were invalidated
[2022.11.27-10.27.35:355][  0]MapCheck: New page: Map Check
[2022.11.27-10.27.35:355][  0]LightingResults: New page: Lighting Build
[2022.11.27-10.27.35:361][  0]LogAudio: Display: Audio Device unregistered from world 'None'.
[2022.11.27-10.27.35:364][  0]LogUObjectHash: Compacting FUObjectHashTables data took   0.77ms
[2022.11.27-10.27.35:534][  0]LogAudio: Display: Audio Device (ID: 1) registered with world 'NewMap'.
[2022.11.27-10.27.35:535][  0]LogAIModule: Creating AISystem for world NewMap
[2022.11.27-10.27.35:666][  0]LogEditorServer: Finished looking for orphan Actors (0.000 secs)
[2022.11.27-10.27.35:678][  0]LogUObjectHash: Compacting FUObjectHashTables data took   0.84ms
[2022.11.27-10.27.35:678][  0]Cmd: MAP CHECKDEP NOCLEARLOG
[2022.11.27-10.27.35:679][  0]MapCheck: Map check complete: 0 Error(s), 0 Warning(s), took 0,097ms to complete.
[2022.11.27-10.27.35:679][  0]LogFileHelpers: Loading map 'NewMap' took 0.329
[2022.11.27-10.27.35:680][  0]LogUnrealEdMisc: Total Editor Startup Time, took 6.734
[2022.11.27-10.27.35:786][  0]LogSlate: Updating window title bar state: overlay mode, drag disabled, window buttons hidden, title bar hidden
[2022.11.27-10.27.35:792][  0]LogSlate: Updating window title bar state: overlay mode, drag disabled, window buttons hidden, title bar hidden
[2022.11.27-10.27.35:798][  0]LogSlate: Updating window title bar state: overlay mode, drag disabled, window buttons hidden, title bar hidden
[2022.11.27-10.27.35:804][  0]LogSlate: Updating window title bar state: overlay mode, drag disabled, window buttons hidden, title bar hidden
[2022.11.27-10.27.35:816][  0]LogNativeClassHierarchy: Verbose: Native class hierarchy populated in 0.0081 seconds. Added 3822 classes and 928 folders.
[2022.11.27-10.27.35:833][  0]LogNativeClassHierarchy: Verbose: Native class hierarchy updated for 'WidgetCarousel' in 0.0002 seconds. Added 0 classes and 0 folders.
[2022.11.27-10.27.35:865][  0]LogPakFile: PakFile PrimaryIndexSize=187
[2022.11.27-10.27.35:865][  0]LogPakFile: PakFile PathHashIndexSize=101
[2022.11.27-10.27.35:865][  0]LogPakFile: PakFile FullDirectoryIndexSize=148
[2022.11.27-10.27.35:865][  0]LogShaderLibrary: Display: ShaderCodeLibraryPakFileMountedCallback: PakFile 'D:/Epic/UE_4.27/FeaturePacks/FP_FirstPerson.upack' (chunk index -1, root 'root:/') mounted
[2022.11.27-10.27.35:865][  0]LogShaderLibrary: Display: ShaderCodeLibraryPakFileMountedCallback: pending pak file info (ChunkID:-1 Root:root:/ File:D:/Epic/UE_4.27/FeaturePacks/FP_FirstPerson.upack)
[2022.11.27-10.27.35:865][  0]LogPakFile: OnPakFileMounted2Time == 0.000057
[2022.11.27-10.27.35:866][  0]LogPakFile: PakFile PrimaryIndexSize=189
[2022.11.27-10.27.35:866][  0]LogPakFile: PakFile PathHashIndexSize=101
[2022.11.27-10.27.35:866][  0]LogPakFile: PakFile FullDirectoryIndexSize=152
[2022.11.27-10.27.35:866][  0]LogShaderLibrary: Display: ShaderCodeLibraryPakFileMountedCallback: PakFile 'D:/Epic/UE_4.27/FeaturePacks/FP_FirstPersonBP.upack' (chunk index -1, root 'root:/') mounted
[2022.11.27-10.27.35:866][  0]LogShaderLibrary: Display: ShaderCodeLibraryPakFileMountedCallback: pending pak file info (ChunkID:-1 Root:root:/ File:D:/Epic/UE_4.27/FeaturePacks/FP_FirstPersonBP.upack)
[2022.11.27-10.27.35:866][  0]LogPakFile: OnPakFileMounted2Time == 0.000035
[2022.11.27-10.27.35:867][  0]LogPakFile: PakFile PrimaryIndexSize=191
[2022.11.27-10.27.35:867][  0]LogPakFile: PakFile PathHashIndexSize=101
[2022.11.27-10.27.35:867][  0]LogPakFile: PakFile FullDirectoryIndexSize=160
[2022.11.27-10.27.35:867][  0]LogShaderLibrary: Display: ShaderCodeLibraryPakFileMountedCallback: PakFile 'D:/Epic/UE_4.27/FeaturePacks/MobileStarterContent.upack' (chunk index -1, root 'root:/') mounted
[2022.11.27-10.27.35:867][  0]LogShaderLibrary: Display: ShaderCodeLibraryPakFileMountedCallback: pending pak file info (ChunkID:-1 Root:root:/ File:D:/Epic/UE_4.27/FeaturePacks/MobileStarterContent.upack)
[2022.11.27-10.27.35:867][  0]LogPakFile: OnPakFileMounted2Time == 0.000032
[2022.11.27-10.27.35:867][  0]LogPakFile: PakFile PrimaryIndexSize=185
[2022.11.27-10.27.35:867][  0]LogPakFile: PakFile PathHashIndexSize=101
[2022.11.27-10.27.35:867][  0]LogPakFile: PakFile FullDirectoryIndexSize=148
[2022.11.27-10.27.35:867][  0]LogShaderLibrary: Display: ShaderCodeLibraryPakFileMountedCallback: PakFile 'D:/Epic/UE_4.27/FeaturePacks/StarterContent.upack' (chunk index -1, root 'root:/') mounted
[2022.11.27-10.27.35:867][  0]LogShaderLibrary: Display: ShaderCodeLibraryPakFileMountedCallback: pending pak file info (ChunkID:-1 Root:root:/ File:D:/Epic/UE_4.27/FeaturePacks/StarterContent.upack)
[2022.11.27-10.27.35:867][  0]LogPakFile: OnPakFileMounted2Time == 0.000035
[2022.11.27-10.27.35:868][  0]LogPakFile: PakFile PrimaryIndexSize=190
[2022.11.27-10.27.35:868][  0]LogPakFile: PakFile PathHashIndexSize=101
[2022.11.27-10.27.35:868][  0]LogPakFile: PakFile FullDirectoryIndexSize=154
[2022.11.27-10.27.35:868][  0]LogShaderLibrary: Display: ShaderCodeLibraryPakFileMountedCallback: PakFile 'D:/Epic/UE_4.27/FeaturePacks/TP_2DSideScroller.upack' (chunk index -1, root 'root:/') mounted
[2022.11.27-10.27.35:868][  0]LogShaderLibrary: Display: ShaderCodeLibraryPakFileMountedCallback: pending pak file info (ChunkID:-1 Root:root:/ File:D:/Epic/UE_4.27/FeaturePacks/TP_2DSideScroller.upack)
[2022.11.27-10.27.35:868][  0]LogPakFile: OnPakFileMounted2Time == 0.000034
[2022.11.27-10.27.35:869][  0]LogPakFile: PakFile PrimaryIndexSize=192
[2022.11.27-10.27.35:869][  0]LogPakFile: PakFile PathHashIndexSize=101
[2022.11.27-10.27.35:869][  0]LogPakFile: PakFile FullDirectoryIndexSize=158
[2022.11.27-10.27.35:869][  0]LogShaderLibrary: Display: ShaderCodeLibraryPakFileMountedCallback: PakFile 'D:/Epic/UE_4.27/FeaturePacks/TP_2DSideScrollerBP.upack' (chunk index -1, root 'root:/') mounted
[2022.11.27-10.27.35:869][  0]LogShaderLibrary: Display: ShaderCodeLibraryPakFileMountedCallback: pending pak file info (ChunkID:-1 Root:root:/ File:D:/Epic/UE_4.27/FeaturePacks/TP_2DSideScrollerBP.upack)
[2022.11.27-10.27.35:869][  0]LogPakFile: OnPakFileMounted2Time == 0.000034
[2022.11.27-10.27.35:869][  0]LogPakFile: PakFile PrimaryIndexSize=182
[2022.11.27-10.27.35:869][  0]LogPakFile: PakFile PathHashIndexSize=101
[2022.11.27-10.27.35:869][  0]LogPakFile: PakFile FullDirectoryIndexSize=138
[2022.11.27-10.27.35:869][  0]LogShaderLibrary: Display: ShaderCodeLibraryPakFileMountedCallback: PakFile 'D:/Epic/UE_4.27/FeaturePacks/TP_Flying.upack' (chunk index -1, root 'root:/') mounted
[2022.11.27-10.27.35:870][  0]LogShaderLibrary: Display: ShaderCodeLibraryPakFileMountedCallback: pending pak file info (ChunkID:-1 Root:root:/ File:D:/Epic/UE_4.27/FeaturePacks/TP_Flying.upack)
[2022.11.27-10.27.35:870][  0]LogPakFile: OnPakFileMounted2Time == 0.000040
[2022.11.27-10.27.35:870][  0]LogPakFile: PakFile PrimaryIndexSize=184
[2022.11.27-10.27.35:870][  0]LogPakFile: PakFile PathHashIndexSize=101
[2022.11.27-10.27.35:870][  0]LogPakFile: PakFile FullDirectoryIndexSize=142
[2022.11.27-10.27.35:870][  0]LogShaderLibrary: Display: ShaderCodeLibraryPakFileMountedCallback: PakFile 'D:/Epic/UE_4.27/FeaturePacks/TP_FlyingBP.upack' (chunk index -1, root 'root:/') mounted
[2022.11.27-10.27.35:870][  0]LogShaderLibrary: Display: ShaderCodeLibraryPakFileMountedCallback: pending pak file info (ChunkID:-1 Root:root:/ File:D:/Epic/UE_4.27/FeaturePacks/TP_FlyingBP.upack)
[2022.11.27-10.27.35:870][  0]LogPakFile: OnPakFileMounted2Time == 0.000035
[2022.11.27-10.27.35:871][  0]LogPakFile: PakFile PrimaryIndexSize=188
[2022.11.27-10.27.35:871][  0]LogPakFile: PakFile PathHashIndexSize=101
[2022.11.27-10.27.35:871][  0]LogPakFile: PakFile FullDirectoryIndexSize=150
[2022.11.27-10.27.35:871][  0]LogShaderLibrary: Display: ShaderCodeLibraryPakFileMountedCallback: PakFile 'D:/Epic/UE_4.27/FeaturePacks/TP_HandheldARBP.upack' (chunk index -1, root 'root:/') mounted
[2022.11.27-10.27.35:871][  0]LogShaderLibrary: Display: ShaderCodeLibraryPakFileMountedCallback: pending pak file info (ChunkID:-1 Root:root:/ File:D:/Epic/UE_4.27/FeaturePacks/TP_HandheldARBP.upack)
[2022.11.27-10.27.35:871][  0]LogPakFile: OnPakFileMounted2Time == 0.000035
[2022.11.27-10.27.35:872][  0]LogPakFile: PakFile PrimaryIndexSize=182
[2022.11.27-10.27.35:872][  0]LogPakFile: PakFile PathHashIndexSize=101
[2022.11.27-10.27.35:872][  0]LogPakFile: PakFile FullDirectoryIndexSize=138
[2022.11.27-10.27.35:872][  0]LogShaderLibrary: Display: ShaderCodeLibraryPakFileMountedCallback: PakFile 'D:/Epic/UE_4.27/FeaturePacks/TP_Puzzle.upack' (chunk index -1, root 'root:/') mounted
[2022.11.27-10.27.35:872][  0]LogShaderLibrary: Display: ShaderCodeLibraryPakFileMountedCallback: pending pak file info (ChunkID:-1 Root:root:/ File:D:/Epic/UE_4.27/FeaturePacks/TP_Puzzle.upack)
[2022.11.27-10.27.35:872][  0]LogPakFile: OnPakFileMounted2Time == 0.000034
[2022.11.27-10.27.35:872][  0]LogPakFile: PakFile PrimaryIndexSize=184
[2022.11.27-10.27.35:872][  0]LogPakFile: PakFile PathHashIndexSize=101
[2022.11.27-10.27.35:872][  0]LogPakFile: PakFile FullDirectoryIndexSize=142
[2022.11.27-10.27.35:872][  0]LogShaderLibrary: Display: ShaderCodeLibraryPakFileMountedCallback: PakFile 'D:/Epic/UE_4.27/FeaturePacks/TP_PuzzleBP.upack' (chunk index -1, root 'root:/') mounted
[2022.11.27-10.27.35:872][  0]LogShaderLibrary: Display: ShaderCodeLibraryPakFileMountedCallback: pending pak file info (ChunkID:-1 Root:root:/ File:D:/Epic/UE_4.27/FeaturePacks/TP_PuzzleBP.upack)
[2022.11.27-10.27.35:872][  0]LogPakFile: OnPakFileMounted2Time == 0.000035
[2022.11.27-10.27.35:873][  0]LogPakFile: PakFile PrimaryIndexSize=183
[2022.11.27-10.27.35:873][  0]LogPakFile: PakFile PathHashIndexSize=101
[2022.11.27-10.27.35:873][  0]LogPakFile: PakFile FullDirectoryIndexSize=140
[2022.11.27-10.27.35:873][  0]LogShaderLibrary: Display: ShaderCodeLibraryPakFileMountedCallback: PakFile 'D:/Epic/UE_4.27/FeaturePacks/TP_Rolling.upack' (chunk index -1, root 'root:/') mounted
[2022.11.27-10.27.35:873][  0]LogShaderLibrary: Display: ShaderCodeLibraryPakFileMountedCallback: pending pak file info (ChunkID:-1 Root:root:/ File:D:/Epic/UE_4.27/FeaturePacks/TP_Rolling.upack)
[2022.11.27-10.27.35:873][  0]LogPakFile: OnPakFileMounted2Time == 0.000032
[2022.11.27-10.27.35:874][  0]LogPakFile: PakFile PrimaryIndexSize=185
[2022.11.27-10.27.35:874][  0]LogPakFile: PakFile PathHashIndexSize=101
[2022.11.27-10.27.35:874][  0]LogPakFile: PakFile FullDirectoryIndexSize=144
[2022.11.27-10.27.35:874][  0]LogShaderLibrary: Display: ShaderCodeLibraryPakFileMountedCallback: PakFile 'D:/Epic/UE_4.27/FeaturePacks/TP_RollingBP.upack' (chunk index -1, root 'root:/') mounted
[2022.11.27-10.27.35:874][  0]LogShaderLibrary: Display: ShaderCodeLibraryPakFileMountedCallback: pending pak file info (ChunkID:-1 Root:root:/ File:D:/Epic/UE_4.27/FeaturePacks/TP_RollingBP.upack)
[2022.11.27-10.27.35:874][  0]LogPakFile: OnPakFileMounted2Time == 0.000032
[2022.11.27-10.27.35:874][  0]LogPakFile: PakFile PrimaryIndexSize=188
[2022.11.27-10.27.35:874][  0]LogPakFile: PakFile PathHashIndexSize=101
[2022.11.27-10.27.35:874][  0]LogPakFile: PakFile FullDirectoryIndexSize=150
[2022.11.27-10.27.35:874][  0]LogShaderLibrary: Display: ShaderCodeLibraryPakFileMountedCallback: PakFile 'D:/Epic/UE_4.27/FeaturePacks/TP_SideScroller.upack' (chunk index -1, root 'root:/') mounted
[2022.11.27-10.27.35:874][  0]LogShaderLibrary: Display: ShaderCodeLibraryPakFileMountedCallback: pending pak file info (ChunkID:-1 Root:root:/ File:D:/Epic/UE_4.27/FeaturePacks/TP_SideScroller.upack)
[2022.11.27-10.27.35:874][  0]LogPakFile: OnPakFileMounted2Time == 0.000040
[2022.11.27-10.27.35:875][  0]LogPakFile: PakFile PrimaryIndexSize=190
[2022.11.27-10.27.35:875][  0]LogPakFile: PakFile PathHashIndexSize=101
[2022.11.27-10.27.35:875][  0]LogPakFile: PakFile FullDirectoryIndexSize=154
[2022.11.27-10.27.35:875][  0]LogShaderLibrary: Display: ShaderCodeLibraryPakFileMountedCallback: PakFile 'D:/Epic/UE_4.27/FeaturePacks/TP_SideScrollerBP.upack' (chunk index -1, root 'root:/') mounted
[2022.11.27-10.27.35:875][  0]LogShaderLibrary: Display: ShaderCodeLibraryPakFileMountedCallback: pending pak file info (ChunkID:-1 Root:root:/ File:D:/Epic/UE_4.27/FeaturePacks/TP_SideScrollerBP.upack)
[2022.11.27-10.27.35:875][  0]LogPakFile: OnPakFileMounted2Time == 0.000032
[2022.11.27-10.27.35:875][  0]LogPakFile: PakFile PrimaryIndexSize=187
[2022.11.27-10.27.35:875][  0]LogPakFile: PakFile PathHashIndexSize=101
[2022.11.27-10.27.35:875][  0]LogPakFile: PakFile FullDirectoryIndexSize=148
[2022.11.27-10.27.35:875][  0]LogShaderLibrary: Display: ShaderCodeLibraryPakFileMountedCallback: PakFile 'D:/Epic/UE_4.27/FeaturePacks/TP_ThirdPerson.upack' (chunk index -1, root 'root:/') mounted
[2022.11.27-10.27.35:876][  0]LogShaderLibrary: Display: ShaderCodeLibraryPakFileMountedCallback: pending pak file info (ChunkID:-1 Root:root:/ File:D:/Epic/UE_4.27/FeaturePacks/TP_ThirdPerson.upack)
[2022.11.27-10.27.35:876][  0]LogPakFile: OnPakFileMounted2Time == 0.000033
[2022.11.27-10.27.35:876][  0]LogPakFile: PakFile PrimaryIndexSize=189
[2022.11.27-10.27.35:876][  0]LogPakFile: PakFile PathHashIndexSize=101
[2022.11.27-10.27.35:876][  0]LogPakFile: PakFile FullDirectoryIndexSize=152
[2022.11.27-10.27.35:876][  0]LogShaderLibrary: Display: ShaderCodeLibraryPakFileMountedCallback: PakFile 'D:/Epic/UE_4.27/FeaturePacks/TP_ThirdPersonBP.upack' (chunk index -1, root 'root:/') mounted
[2022.11.27-10.27.35:876][  0]LogShaderLibrary: Display: ShaderCodeLibraryPakFileMountedCallback: pending pak file info (ChunkID:-1 Root:root:/ File:D:/Epic/UE_4.27/FeaturePacks/TP_ThirdPersonBP.upack)
[2022.11.27-10.27.35:876][  0]LogPakFile: OnPakFileMounted2Time == 0.000034
[2022.11.27-10.27.35:877][  0]LogPakFile: PakFile PrimaryIndexSize=183
[2022.11.27-10.27.35:877][  0]LogPakFile: PakFile PathHashIndexSize=101
[2022.11.27-10.27.35:877][  0]LogPakFile: PakFile FullDirectoryIndexSize=140
[2022.11.27-10.27.35:877][  0]LogShaderLibrary: Display: ShaderCodeLibraryPakFileMountedCallback: PakFile 'D:/Epic/UE_4.27/FeaturePacks/TP_TopDown.upack' (chunk index -1, root 'root:/') mounted
[2022.11.27-10.27.35:877][  0]LogShaderLibrary: Display: ShaderCodeLibraryPakFileMountedCallback: pending pak file info (ChunkID:-1 Root:root:/ File:D:/Epic/UE_4.27/FeaturePacks/TP_TopDown.upack)
[2022.11.27-10.27.35:877][  0]LogPakFile: OnPakFileMounted2Time == 0.000046
[2022.11.27-10.27.35:877][  0]LogPakFile: PakFile PrimaryIndexSize=185
[2022.11.27-10.27.35:877][  0]LogPakFile: PakFile PathHashIndexSize=101
[2022.11.27-10.27.35:877][  0]LogPakFile: PakFile FullDirectoryIndexSize=144
[2022.11.27-10.27.35:877][  0]LogShaderLibrary: Display: ShaderCodeLibraryPakFileMountedCallback: PakFile 'D:/Epic/UE_4.27/FeaturePacks/TP_TopDownBP.upack' (chunk index -1, root 'root:/') mounted
[2022.11.27-10.27.35:877][  0]LogShaderLibrary: Display: ShaderCodeLibraryPakFileMountedCallback: pending pak file info (ChunkID:-1 Root:root:/ File:D:/Epic/UE_4.27/FeaturePacks/TP_TopDownBP.upack)
[2022.11.27-10.27.35:877][  0]LogPakFile: OnPakFileMounted2Time == 0.000035
[2022.11.27-10.27.35:878][  0]LogPakFile: PakFile PrimaryIndexSize=185
[2022.11.27-10.27.35:878][  0]LogPakFile: PakFile PathHashIndexSize=101
[2022.11.27-10.27.35:878][  0]LogPakFile: PakFile FullDirectoryIndexSize=144
[2022.11.27-10.27.35:878][  0]LogShaderLibrary: Display: ShaderCodeLibraryPakFileMountedCallback: PakFile 'D:/Epic/UE_4.27/FeaturePacks/TP_TwinStick.upack' (chunk index -1, root 'root:/') mounted
[2022.11.27-10.27.35:878][  0]LogShaderLibrary: Display: ShaderCodeLibraryPakFileMountedCallback: pending pak file info (ChunkID:-1 Root:root:/ File:D:/Epic/UE_4.27/FeaturePacks/TP_TwinStick.upack)
[2022.11.27-10.27.35:878][  0]LogPakFile: OnPakFileMounted2Time == 0.000033
[2022.11.27-10.27.35:879][  0]LogPakFile: PakFile PrimaryIndexSize=187
[2022.11.27-10.27.35:879][  0]LogPakFile: PakFile PathHashIndexSize=101
[2022.11.27-10.27.35:879][  0]LogPakFile: PakFile FullDirectoryIndexSize=148
[2022.11.27-10.27.35:879][  0]LogShaderLibrary: Display: ShaderCodeLibraryPakFileMountedCallback: PakFile 'D:/Epic/UE_4.27/FeaturePacks/TP_TwinStickBP.upack' (chunk index -1, root 'root:/') mounted
[2022.11.27-10.27.35:879][  0]LogShaderLibrary: Display: ShaderCodeLibraryPakFileMountedCallback: pending pak file info (ChunkID:-1 Root:root:/ File:D:/Epic/UE_4.27/FeaturePacks/TP_TwinStickBP.upack)
[2022.11.27-10.27.35:879][  0]LogPakFile: OnPakFileMounted2Time == 0.000032
[2022.11.27-10.27.35:879][  0]LogPakFile: PakFile PrimaryIndexSize=183
[2022.11.27-10.27.35:879][  0]LogPakFile: PakFile PathHashIndexSize=101
[2022.11.27-10.27.35:879][  0]LogPakFile: PakFile FullDirectoryIndexSize=140
[2022.11.27-10.27.35:879][  0]LogShaderLibrary: Display: ShaderCodeLibraryPakFileMountedCallback: PakFile 'D:/Epic/UE_4.27/FeaturePacks/TP_Vehicle.upack' (chunk index -1, root 'root:/') mounted
[2022.11.27-10.27.35:879][  0]LogShaderLibrary: Display: ShaderCodeLibraryPakFileMountedCallback: pending pak file info (ChunkID:-1 Root:root:/ File:D:/Epic/UE_4.27/FeaturePacks/TP_Vehicle.upack)
[2022.11.27-10.27.35:879][  0]LogPakFile: OnPakFileMounted2Time == 0.000032
[2022.11.27-10.27.35:880][  0]LogPakFile: PakFile PrimaryIndexSize=186
[2022.11.27-10.27.35:880][  0]LogPakFile: PakFile PathHashIndexSize=101
[2022.11.27-10.27.35:880][  0]LogPakFile: PakFile FullDirectoryIndexSize=146
[2022.11.27-10.27.35:880][  0]LogShaderLibrary: Display: ShaderCodeLibraryPakFileMountedCallback: PakFile 'D:/Epic/UE_4.27/FeaturePacks/TP_VehicleAdv.upack' (chunk index -1, root 'root:/') mounted
[2022.11.27-10.27.35:880][  0]LogShaderLibrary: Display: ShaderCodeLibraryPakFileMountedCallback: pending pak file info (ChunkID:-1 Root:root:/ File:D:/Epic/UE_4.27/FeaturePacks/TP_VehicleAdv.upack)
[2022.11.27-10.27.35:880][  0]LogPakFile: OnPakFileMounted2Time == 0.000032
[2022.11.27-10.27.35:881][  0]LogPakFile: PakFile PrimaryIndexSize=188
[2022.11.27-10.27.35:881][  0]LogPakFile: PakFile PathHashIndexSize=101
[2022.11.27-10.27.35:881][  0]LogPakFile: PakFile FullDirectoryIndexSize=150
[2022.11.27-10.27.35:881][  0]LogShaderLibrary: Display: ShaderCodeLibraryPakFileMountedCallback: PakFile 'D:/Epic/UE_4.27/FeaturePacks/TP_VehicleAdvBP.upack' (chunk index -1, root 'root:/') mounted
[2022.11.27-10.27.35:881][  0]LogShaderLibrary: Display: ShaderCodeLibraryPakFileMountedCallback: pending pak file info (ChunkID:-1 Root:root:/ File:D:/Epic/UE_4.27/FeaturePacks/TP_VehicleAdvBP.upack)
[2022.11.27-10.27.35:881][  0]LogPakFile: OnPakFileMounted2Time == 0.000032
[2022.11.27-10.27.35:881][  0]LogPakFile: PakFile PrimaryIndexSize=185
[2022.11.27-10.27.35:881][  0]LogPakFile: PakFile PathHashIndexSize=101
[2022.11.27-10.27.35:881][  0]LogPakFile: PakFile FullDirectoryIndexSize=144
[2022.11.27-10.27.35:881][  0]LogShaderLibrary: Display: ShaderCodeLibraryPakFileMountedCallback: PakFile 'D:/Epic/UE_4.27/FeaturePacks/TP_VehicleBP.upack' (chunk index -1, root 'root:/') mounted
[2022.11.27-10.27.35:881][  0]LogShaderLibrary: Display: ShaderCodeLibraryPakFileMountedCallback: pending pak file info (ChunkID:-1 Root:root:/ File:D:/Epic/UE_4.27/FeaturePacks/TP_VehicleBP.upack)
[2022.11.27-10.27.35:881][  0]LogPakFile: OnPakFileMounted2Time == 0.000034
[2022.11.27-10.27.35:882][  0]LogPakFile: PakFile PrimaryIndexSize=192
[2022.11.27-10.27.35:882][  0]LogPakFile: PakFile PathHashIndexSize=101
[2022.11.27-10.27.35:882][  0]LogPakFile: PakFile FullDirectoryIndexSize=158
[2022.11.27-10.27.35:882][  0]LogShaderLibrary: Display: ShaderCodeLibraryPakFileMountedCallback: PakFile 'D:/Epic/UE_4.27/FeaturePacks/TP_VirtualRealityBP.upack' (chunk index -1, root 'root:/') mounted
[2022.11.27-10.27.35:882][  0]LogShaderLibrary: Display: ShaderCodeLibraryPakFileMountedCallback: pending pak file info (ChunkID:-1 Root:root:/ File:D:/Epic/UE_4.27/FeaturePacks/TP_VirtualRealityBP.upack)
[2022.11.27-10.27.35:882][  0]LogPakFile: OnPakFileMounted2Time == 0.000032
[2022.11.27-10.27.35:932][  0]LogNativeClassHierarchy: Verbose: Native class hierarchy updated for 'AddContentDialog' in 0.0003 seconds. Added 0 classes and 0 folders.
[2022.11.27-10.27.35:933][  0]LogNativeClassHierarchy: Verbose: Native class hierarchy updated for 'SceneOutliner' in 0.0003 seconds. Added 2 classes and 0 folders.
[2022.11.27-10.27.35:977][  0]LogSlate: Took 0.000206 seconds to synchronously load lazily loaded font '../../../Engine/Content/Slate/Fonts/Roboto-Regular.ttf' (155K)
[2022.11.27-10.27.35:978][  0]LogSlate: Took 0.000132 seconds to synchronously load lazily loaded font '../../../Engine/Content/Editor/Slate/Fonts/FontAwesome.ttf' (139K)
[2022.11.27-10.27.35:979][  0]LogSlate: Took 0.000320 seconds to synchronously load lazily loaded font '../../../Engine/Content/Slate/Fonts/Roboto-Bold.ttf' (160K)
[2022.11.27-10.27.36:061][  0]LogRenderer: Reallocating scene render targets to support 1380x616 Format 10 NumSamples 1 (Frame:1).
[2022.11.27-10.27.36:100][  0]LogSlate: Took 0.000238 seconds to synchronously load lazily loaded font '../../../Engine/Content/Slate/Fonts/Roboto-Light.ttf' (167K)
[2022.11.27-10.27.36:172][  0]LogNativeClassHierarchy: Verbose: Native class hierarchy updated for 'HierarchicalLODOutliner' in 0.0006 seconds. Added 0 classes and 0 folders.
[2022.11.27-10.27.36:172][  0]LogLoad: (Engine Initialization) Total time: 7.23 seconds
[2022.11.27-10.27.36:172][  0]LogLoad: (Engine Initialization) Total Blueprint compile time: 0.00 seconds
[2022.11.27-10.27.36:309][  0]LogAssetRegistry: Asset discovery search completed in 4.6081 seconds
[2022.11.27-10.27.36:314][  0]LogCollectionManager: Fixed up redirectors for 0 collections in 0.000002 seconds (updated 0 objects)
[2022.11.27-10.27.36:317][  0]LogContentStreaming: Texture pool size now 1000 MB
